# Blender v2.83.0 OBJ File: ''
# www.blender.org
mtllib paper_1.mtl
v -0.046471 0.490977 -0.140839
v 0.029295 0.490977 -0.104292
v -0.025122 0.490977 -0.185098
v 0.050644 0.490977 -0.148552
v -0.026157 0.522817 -0.184382
v -0.018612 0.522817 -0.100601
v 0.022785 0.522817 -0.188789
v 0.030330 0.522817 -0.105008
v 0.044432 0.494079 -0.193380
v 0.051977 0.494079 -0.109599
v 0.093373 0.494079 -0.197788
v 0.100918 0.494079 -0.114007
v 0.120131 0.398750 -0.181636
v 0.039797 0.398750 -0.206592
v 0.105552 0.398750 -0.134708
v 0.025219 0.398750 -0.159665
v 0.120692 0.201719 -0.165733
v 0.036575 0.201719 -0.166484
v 0.120253 0.201719 -0.116594
v 0.036136 0.201719 -0.117346
v 0.100368 0.185597 -0.113703
v 0.065008 0.185597 -0.190031
v 0.055781 0.185597 -0.093047
v 0.020421 0.185597 -0.169375
v 0.010043 0.365883 -0.189915
v -0.070289 0.365883 -0.214871
v -0.004535 0.365883 -0.142988
v -0.084868 0.365883 -0.167944
v 0.094501 0.164175 -0.095165
v 0.112669 0.164175 -0.177300
v 0.046521 0.164175 -0.105778
v 0.064689 0.164175 -0.187913
v -0.166126 0.469503 -0.134640
v -0.146350 0.439038 -0.136713
v -0.160827 0.451914 -0.135196
v -0.087447 0.430624 -0.142887
v -0.126574 0.434325 -0.138786
v -0.160827 0.553748 -0.135196
v -0.166126 0.536159 -0.134640
v 0.125216 0.444915 -0.165180
v 0.130515 0.519974 -0.165734
v 0.130515 0.460130 -0.165734
v 0.090963 0.430528 -0.161589
v 0.051467 0.556831 -0.157448
v 0.051467 0.427546 -0.157448
v -0.017805 0.564454 -0.150188
v -0.017805 0.430550 -0.150188
v -0.087447 0.570903 -0.142887
v -0.126574 0.571338 -0.138786
v -0.146350 0.566625 -0.136713
v 0.110739 0.434014 -0.163662
v -0.135031 0.531269 0.162002
v -0.115255 0.564651 0.159928
v -0.129732 0.550722 0.161446
v -0.056352 0.569655 0.153754
v -0.095479 0.569689 0.157855
v -0.129732 0.437726 0.161446
v -0.135031 0.456894 0.162002
v -0.095479 0.414602 0.157855
v -0.115255 0.423556 0.159928
v -0.056352 0.414438 0.153754
v 0.013289 0.569655 0.146454
v 0.013289 0.414438 0.146454
v 0.082561 0.570624 0.139193
v 0.082561 0.424575 0.139193
v 0.122058 0.429302 0.135052
v 0.141834 0.566625 0.132979
v 0.156311 0.450947 0.131462
v 0.161610 0.536085 0.130907
v 0.161610 0.469417 0.130907
v 0.141834 0.436374 0.132979
v 0.156311 0.553748 0.131462
v 0.122058 0.571298 0.135052
v 0.125216 0.537563 -0.165180
v 0.110739 0.550440 -0.163662
v 0.090963 0.555152 -0.161589
v 0.161489 0.418131 -0.159800
v 0.167247 0.405563 -0.159567
v 0.167247 0.357832 -0.159567
v 0.079745 0.331567 -0.163099
v 0.145759 0.338009 -0.160434
v 0.124272 0.335163 -0.161302
v 0.161489 0.346340 -0.159800
v 0.124272 0.430915 -0.161302
v 0.145759 0.427332 -0.160434
v 0.079745 0.427596 -0.163099
v 0.006091 0.327923 -0.166073
v 0.006091 0.426452 -0.166073
v -0.071053 0.332642 -0.169188
v -0.071053 0.433185 -0.169188
v -0.112090 0.337371 -0.170844
v -0.155065 0.412778 -0.172580
v -0.133578 0.434547 -0.171712
v -0.149307 0.425346 -0.172348
v -0.112090 0.437914 -0.170844
v -0.133578 0.340738 -0.171712
v -0.149307 0.349939 -0.172348
v -0.155065 0.362507 -0.172580
v 0.155215 0.405563 0.138457
v 0.149457 0.418131 0.138224
v 0.133727 0.427332 0.137589
v 0.149457 0.346340 0.138224
v 0.155215 0.357832 0.138457
v 0.067713 0.427596 0.134924
v 0.112239 0.430915 0.136722
v 0.112239 0.335163 0.136722
v 0.133727 0.338009 0.137589
v 0.067713 0.331567 0.134924
v -0.005942 0.426452 0.131950
v -0.005942 0.327923 0.131950
v -0.083085 0.433185 0.128836
v -0.083085 0.332642 0.128836
v -0.124122 0.337371 0.127179
v -0.145610 0.434547 0.126311
v -0.161340 0.349939 0.125676
v -0.167097 0.412778 0.125444
v -0.167097 0.362507 0.125444
v -0.161340 0.425346 0.125676
v -0.145610 0.340738 0.126311
v -0.124122 0.437914 0.127179
v 0.138460 0.333570 -0.132746
v 0.159748 0.330202 -0.129702
v 0.175333 0.321002 -0.127474
v 0.094345 0.228297 -0.139054
v 0.181036 0.258162 -0.126658
v 0.159748 0.236393 -0.129702
v 0.175333 0.245594 -0.127474
v 0.138460 0.233026 -0.132746
v 0.181036 0.308434 -0.126658
v 0.094345 0.328840 -0.139054
v 0.021373 0.223579 -0.149489
v 0.021373 0.324123 -0.149489
v -0.055056 0.228297 -0.160419
v -0.055056 0.328840 -0.160419
v -0.095712 0.233026 -0.166233
v -0.138289 0.308434 -0.172321
v -0.132585 0.245594 -0.171506
v -0.138289 0.258162 -0.172321
v -0.117001 0.236393 -0.169277
v -0.117001 0.330202 -0.169277
v -0.095712 0.333570 -0.166233
v -0.132585 0.321002 -0.171506
v 0.133109 0.245594 0.167789
v 0.138814 0.258162 0.168605
v 0.138814 0.308434 0.168605
v 0.052123 0.328840 0.156208
v 0.117526 0.330202 0.165561
v 0.096237 0.333570 0.162517
v 0.133109 0.321002 0.167789
v 0.096237 0.233026 0.162517
v 0.117526 0.236393 0.165561
v 0.052123 0.228297 0.156208
v -0.020849 0.324123 0.145773
v -0.020849 0.223579 0.145773
v -0.097278 0.328840 0.134844
v -0.097278 0.228297 0.134844
v -0.137935 0.233026 0.129030
v -0.159224 0.330202 0.125986
v -0.174808 0.245594 0.123757
v -0.180512 0.308434 0.122942
v -0.180512 0.258162 0.122942
v -0.159224 0.236393 0.125986
v -0.174808 0.321002 0.123758
v -0.137935 0.333570 0.129030
v -0.131440 0.321002 -0.179513
v -0.137144 0.308434 -0.180329
v -0.182182 0.308434 0.134618
v -0.176477 0.321002 0.135434
v -0.115856 0.330202 -0.177284
v -0.160894 0.330202 0.137663
v -0.094568 0.233026 -0.174241
v -0.053911 0.228297 -0.168426
v -0.098948 0.228297 0.146520
v -0.139605 0.233026 0.140706
v -0.115856 0.236393 -0.177284
v -0.160894 0.236393 0.137663
v -0.131440 0.245594 -0.179513
v -0.176477 0.245594 0.135434
v -0.137144 0.258162 -0.180329
v -0.182182 0.258162 0.134618
v 0.160894 0.236393 -0.137709
v 0.176477 0.245594 -0.135481
v 0.131440 0.245594 0.179466
v 0.115856 0.236393 0.177238
v 0.139605 0.233026 -0.140754
v 0.094568 0.233026 0.174193
v 0.050453 0.228297 0.167885
v 0.095491 0.228297 -0.147062
v -0.022519 0.223579 0.157450
v 0.022519 0.223579 -0.157497
v 0.160894 0.330202 -0.137709
v 0.139605 0.333570 -0.140754
v 0.094568 0.333570 0.174193
v 0.115856 0.330202 0.177238
v 0.176477 0.321002 -0.135481
v 0.131440 0.321002 0.179466
v 0.182182 0.308434 -0.134666
v 0.137144 0.308434 0.180281
v 0.182182 0.258162 -0.134666
v 0.137144 0.258162 0.180281
v -0.094568 0.333570 -0.174241
v -0.139605 0.333570 0.140706
v -0.098948 0.328840 0.146520
v -0.053911 0.328840 -0.168426
v -0.022519 0.324123 0.157450
v 0.022519 0.324123 -0.157497
v 0.050453 0.328840 0.167885
v 0.095491 0.328840 -0.147062
v 0.155525 0.142115 0.147257
v 0.161287 0.154683 0.147257
v 0.161287 0.204955 0.147257
v 0.073714 0.225361 0.147257
v 0.139783 0.226724 0.147257
v 0.118277 0.230091 0.147257
v 0.155525 0.217523 0.147257
v -0.161287 0.204955 0.147257
v -0.161287 0.154683 0.147257
v -0.155525 0.142115 0.147257
v -0.139783 0.226724 0.147257
v -0.118277 0.129547 0.147257
v -0.077207 0.225361 0.147257
v -0.077207 0.124817 0.147257
v 0.000000 0.120100 0.147257
v 0.000000 0.220643 0.147257
v 0.073714 0.124817 0.147257
v 0.118277 0.129547 0.147257
v 0.139783 0.132915 0.147257
v -0.139783 0.132915 0.147257
v 0.161287 0.154683 -0.151010
v 0.155525 0.142115 -0.151010
v 0.139783 0.132915 -0.151010
v 0.155525 0.217523 -0.151010
v 0.161287 0.204955 -0.151010
v 0.073714 0.124818 -0.151010
v 0.118277 0.129547 -0.151010
v 0.118277 0.230091 -0.151010
v 0.139783 0.226724 -0.151010
v 0.073714 0.225361 -0.151010
v 0.000000 0.120100 -0.151010
v 0.000000 0.220643 -0.151010
v -0.077207 0.124818 -0.151010
v -0.077207 0.225361 -0.151010
v -0.118277 0.129547 -0.151010
v -0.161287 0.204955 -0.151010
v -0.155525 0.142115 -0.151010
v -0.161287 0.154683 -0.151010
v -0.139783 0.132915 -0.151010
v -0.139783 0.226724 -0.151010
v -0.118277 0.230091 -0.151010
v -0.155525 0.217523 -0.151010
v -0.169094 0.017820 -0.151010
v -0.175282 0.035410 -0.151010
v -0.175282 0.092327 -0.151010
v -0.083396 0.121982 -0.151010
v -0.152186 0.122793 -0.151010
v -0.129091 0.127505 -0.151010
v -0.169094 0.109916 -0.151010
v -0.129091 0.000231 -0.151010
v -0.152186 0.004945 -0.151010
v -0.083396 0.000231 -0.151010
v -0.002065 0.114956 -0.151010
v -0.002065 0.000231 -0.151010
v 0.078835 0.121982 -0.151010
v 0.078835 0.000231 -0.151010
v 0.124961 0.128420 -0.151010
v 0.171152 0.035410 -0.151010
v 0.164964 0.110831 -0.151010
v 0.171152 0.093242 -0.151010
v 0.148057 0.123707 -0.151010
v 0.148057 0.004945 -0.151010
v 0.124961 0.000231 -0.151010
v 0.164964 0.017820 -0.151010
v -0.169094 0.109916 0.147257
v -0.175282 0.092327 0.147257
v -0.175282 0.035410 0.147257
v -0.083396 0.000231 0.147257
v -0.152186 0.004944 0.147257
v -0.129091 0.000231 0.147257
v -0.169094 0.017820 0.147257
v 0.171152 0.035410 0.147257
v 0.171152 0.093241 0.147257
v 0.164964 0.110831 0.147257
v 0.148057 0.004944 0.147257
v 0.124961 0.128420 0.147257
v 0.078835 0.000231 0.147257
v 0.078835 0.121982 0.147257
v -0.002065 0.114956 0.147257
v -0.002065 0.000231 0.147257
v -0.083396 0.121982 0.147257
v -0.129091 0.127505 0.147257
v -0.152186 0.122792 0.147257
v 0.148057 0.123707 0.147257
v -0.155525 0.217523 0.147257
v -0.118277 0.230091 0.147257
v 0.164964 0.017820 0.147257
v 0.124961 0.000231 0.147257
v 0.124632 0.070591 0.168801
v 0.089272 0.070591 0.092473
v 0.080045 0.070591 0.189457
v 0.044685 0.070591 0.113129
v -0.015002 0.466953 0.117332
v -0.098784 0.466953 0.124866
v -0.010600 0.466953 0.166274
v -0.094382 0.466953 0.173808
v -0.031597 0.521809 0.172476
v -0.028678 0.521809 0.088408
v -0.080706 0.521809 0.170772
v -0.077787 0.521809 0.086702
v 0.043661 0.477964 0.181277
v 0.046579 0.477964 0.097207
v -0.005450 0.477964 0.179571
v -0.002531 0.477964 0.095501
v 0.077600 0.507396 0.168628
v 0.080519 0.507396 0.084558
v 0.028490 0.507396 0.166923
v 0.031409 0.507396 0.082853
v 0.006165 0.278919 0.140867
v 0.073017 0.278919 0.191926
v 0.035991 0.278919 0.101815
v 0.102844 0.278919 0.152874
v -0.148900 0.278919 0.134962
v -0.082048 0.278919 0.186021
v -0.119074 0.278919 0.095910
v -0.052222 0.278919 0.146969
v -0.054155 0.143922 0.134962
v 0.012698 0.143922 0.186021
v -0.024328 0.143922 0.095910
v 0.042524 0.143922 0.146969
v 0.034158 0.168057 0.168801
v -0.001202 0.168057 0.092473
v -0.010429 0.168057 0.189457
v -0.045789 0.168057 0.113129
v 0.100368 0.185597 0.168801
v 0.065008 0.185597 0.092473
v 0.055781 0.185597 0.189457
v 0.020421 0.185597 0.113129
v -0.145308 0.464492 -0.122029
v -0.069542 0.464492 -0.085481
v -0.123959 0.464492 -0.166287
v -0.048193 0.464492 -0.129741
v -0.148981 0.425346 -0.180430
v -0.154739 0.412778 -0.180663
v -0.167573 0.412778 0.137229
v -0.161815 0.425346 0.137462
v -0.133251 0.434547 -0.179795
v -0.146086 0.434547 0.138097
v -0.111764 0.337371 -0.178927
v -0.070727 0.332642 -0.177270
v -0.083562 0.332642 0.140621
v -0.124598 0.337371 0.138965
v -0.133251 0.340738 -0.179795
v -0.146086 0.340738 0.138097
v -0.148981 0.349939 -0.180430
v -0.161815 0.349939 0.137462
v -0.154739 0.362507 -0.180663
v -0.167573 0.362507 0.137229
v 0.146086 0.338009 -0.168517
v 0.161815 0.346340 -0.167881
v 0.148981 0.346340 0.150010
v 0.133251 0.338009 0.149375
v 0.124598 0.335163 -0.169385
v 0.111764 0.335163 0.148507
v 0.067237 0.331567 0.146710
v 0.080072 0.331567 -0.171182
v -0.006417 0.327923 0.143736
v 0.006417 0.327923 -0.174156
v 0.146086 0.427332 -0.168517
v 0.124598 0.430915 -0.169385
v 0.111764 0.430915 0.148507
v 0.133251 0.427332 0.149375
v 0.161815 0.418131 -0.167881
v 0.148981 0.418131 0.150010
v 0.167573 0.405563 -0.167649
v 0.154739 0.405563 0.150243
v 0.167573 0.357832 -0.167649
v 0.154739 0.357832 0.150243
v -0.111764 0.437914 -0.178927
v -0.124598 0.437914 0.138965
v -0.083562 0.433185 0.140621
v -0.070727 0.433185 -0.177270
v -0.006417 0.426452 0.143736
v 0.006417 0.426452 -0.174156
v 0.067237 0.427596 0.146710
v 0.080072 0.427596 -0.171182
v -0.114025 0.564614 0.171660
v -0.161671 0.553748 -0.143241
v -0.128503 0.550674 0.173177
v -0.147193 0.566625 -0.144758
v -0.094249 0.569655 0.169586
v -0.127417 0.571338 -0.146831
v -0.055123 0.569655 0.165486
v -0.088291 0.570903 -0.150932
v -0.018649 0.564454 -0.158233
v 0.014519 0.569689 0.158185
v 0.050624 0.556831 -0.165493
v 0.083792 0.570646 0.150924
v 0.090119 0.555152 -0.169634
v 0.123287 0.571302 0.146783
v 0.143063 0.566625 0.144710
v 0.109895 0.550440 -0.171707
v -0.114025 0.423405 0.171659
v -0.127417 0.434325 -0.146831
v -0.094249 0.414438 0.169586
v -0.147193 0.439038 -0.144758
v -0.128503 0.437591 0.173177
v -0.161671 0.451914 -0.143241
v -0.133801 0.456775 0.173733
v -0.166969 0.469503 -0.142685
v -0.133801 0.531208 0.173733
v -0.166969 0.536159 -0.142685
v 0.123287 0.429378 0.146783
v 0.109895 0.434014 -0.171707
v 0.143063 0.436433 0.144710
v 0.090119 0.430528 -0.169634
v 0.083792 0.424686 0.150924
v 0.050624 0.427546 -0.165493
v -0.018649 0.430550 -0.158233
v 0.014519 0.414602 0.158185
v -0.088291 0.430624 -0.150932
v -0.055123 0.414438 0.165486
v 0.157541 0.553748 0.143193
v 0.124373 0.537563 -0.173224
v 0.162839 0.536092 0.142638
v 0.129671 0.519974 -0.173779
v 0.162839 0.469454 0.142638
v 0.129671 0.460130 -0.173779
v 0.157541 0.450991 0.143193
v 0.124373 0.444915 -0.173224
v -0.155525 0.217523 -0.159099
v -0.161287 0.204955 -0.159099
v -0.161287 0.204955 0.159052
v -0.155525 0.217523 0.159052
v -0.139783 0.226724 -0.159099
v -0.139783 0.226724 0.159052
v -0.118277 0.129547 -0.159099
v -0.077207 0.124818 -0.159099
v -0.077207 0.124817 0.159052
v -0.118277 0.129547 0.159052
v -0.139783 0.132915 -0.159099
v -0.139783 0.132915 0.159052
v -0.155525 0.142115 -0.159099
v -0.155525 0.142115 0.159052
v -0.161287 0.154683 -0.159099
v -0.161287 0.154683 0.159052
v 0.139783 0.132915 -0.159099
v 0.155525 0.142115 -0.159099
v 0.155525 0.142115 0.159052
v 0.139783 0.132915 0.159052
v 0.118277 0.129547 -0.159099
v 0.118277 0.129547 0.159052
v 0.073714 0.124817 0.159052
v 0.073714 0.124818 -0.159099
v 0.000000 0.120100 0.159052
v 0.000000 0.120100 -0.159099
v 0.139783 0.226724 -0.159099
v 0.118277 0.230091 -0.159099
v 0.118277 0.230091 0.159052
v 0.139783 0.226724 0.159052
v 0.155525 0.217523 -0.159099
v 0.155525 0.217523 0.159052
v 0.161287 0.204955 -0.159099
v 0.161287 0.204955 0.159052
v 0.161287 0.154683 -0.159099
v 0.161287 0.154683 0.159052
v -0.118277 0.230091 -0.159099
v -0.118277 0.230091 0.159052
v -0.077207 0.225361 0.159052
v -0.077207 0.225361 -0.159099
v 0.000000 0.220643 0.159052
v 0.000000 0.220643 -0.159099
v 0.073714 0.225361 0.159052
v 0.073714 0.225361 -0.159099
v 0.124961 0.000231 -0.159099
v 0.148057 0.004945 -0.159099
v 0.148057 0.004944 0.159052
v 0.124961 0.000231 0.159052
v 0.078835 0.000231 0.159052
v 0.078835 0.000231 -0.159099
v -0.002065 0.000231 0.159052
v -0.002064 0.000231 -0.159099
v -0.083396 0.000231 0.159052
v -0.083396 0.000231 -0.159099
v -0.129091 0.000231 -0.159099
v -0.129091 0.000231 0.159052
v -0.152186 0.004945 -0.159099
v -0.152186 0.004944 0.159052
v -0.169094 0.017820 -0.159099
v -0.169094 0.017820 0.159052
v -0.175282 0.035410 -0.159099
v -0.175282 0.035410 0.159052
v -0.175282 0.092327 -0.159099
v -0.175282 0.092327 0.159052
v -0.169094 0.109916 -0.159099
v -0.169094 0.109916 0.159052
v -0.152186 0.122793 -0.159099
v -0.152186 0.122793 0.159052
v -0.129091 0.127505 -0.159099
v -0.129091 0.127505 0.159052
v -0.083396 0.121982 0.159052
v -0.083396 0.121982 -0.159099
v -0.002065 0.114956 0.159052
v -0.002064 0.114956 -0.159099
v 0.078835 0.121982 0.159052
v 0.078835 0.121982 -0.159099
v 0.124961 0.128420 -0.159099
v 0.124961 0.128420 0.159052
v 0.148057 0.123707 -0.159099
v 0.148057 0.123707 0.159052
v 0.164964 0.110831 -0.159099
v 0.164964 0.110831 0.159052
v 0.171152 0.093242 -0.159099
v 0.171152 0.093241 0.159052
v 0.171152 0.035410 -0.159099
v 0.171152 0.035410 0.159052
v 0.164964 0.017820 -0.159099
v 0.164964 0.017820 0.159052
vt 0.000800 0.602200
vt 0.000800 0.497800
vt 0.172300 0.602200
vt 0.172300 0.497800
vt 0.000800 0.602200
vt 0.000800 0.497800
vt 0.172300 0.602200
vt 0.172300 0.497800
vt 0.000800 0.602200
vt 0.000800 0.497800
vt 0.172300 0.602200
vt 0.172300 0.497800
vt 0.000800 0.602200
vt 0.000800 0.497800
vt 0.172300 0.602200
vt 0.172300 0.497800
vt 0.000800 0.495400
vt 0.000800 0.391000
vt 0.172300 0.495400
vt 0.172300 0.391000
vt 0.000800 0.495400
vt 0.000800 0.391000
vt 0.172300 0.495400
vt 0.172300 0.391000
vt 0.000800 0.602200
vt 0.000800 0.497800
vt 0.172300 0.602200
vt 0.172300 0.497800
vt 0.000800 0.495400
vt 0.000800 0.391000
vt 0.172300 0.495400
vt 0.172300 0.391000
vt 0.230900 0.447100
vt 0.255500 0.404500
vt 0.237500 0.422500
vt 0.328800 0.397900
vt 0.280100 0.397900
vt 0.237500 0.570100
vt 0.230900 0.545500
vt 0.593300 0.422500
vt 0.599900 0.545500
vt 0.599900 0.447100
vt 0.550700 0.397900
vt 0.501600 0.594700
vt 0.501600 0.397900
vt 0.415400 0.594700
vt 0.415400 0.397900
vt 0.328800 0.594700
vt 0.280100 0.594700
vt 0.255500 0.588100
vt 0.575300 0.404500
vt 0.230900 0.447100
vt 0.255500 0.404500
vt 0.237500 0.422500
vt 0.328800 0.397900
vt 0.280100 0.397900
vt 0.237500 0.570100
vt 0.230900 0.545500
vt 0.280100 0.594700
vt 0.255500 0.588100
vt 0.328800 0.594700
vt 0.415400 0.397900
vt 0.415400 0.594700
vt 0.501600 0.397900
vt 0.501600 0.594700
vt 0.550700 0.594700
vt 0.575300 0.404500
vt 0.593300 0.570100
vt 0.599900 0.447100
vt 0.599900 0.545500
vt 0.575300 0.588100
vt 0.593300 0.422500
vt 0.550700 0.397900
vt 0.593300 0.570100
vt 0.575300 0.588100
vt 0.550700 0.594700
vt 0.989700 0.426800
vt 0.996300 0.451400
vt 0.996300 0.549800
vt 0.896200 0.599000
vt 0.971700 0.592400
vt 0.947100 0.599000
vt 0.989700 0.574400
vt 0.947100 0.402200
vt 0.971700 0.408800
vt 0.896200 0.402200
vt 0.811800 0.599000
vt 0.811800 0.402200
vt 0.723500 0.599000
vt 0.723500 0.402200
vt 0.676600 0.599000
vt 0.627400 0.451400
vt 0.652000 0.408800
vt 0.634000 0.426800
vt 0.676600 0.402200
vt 0.652000 0.592400
vt 0.634000 0.574400
vt 0.627400 0.549800
vt 0.996300 0.549800
vt 0.989700 0.574400
vt 0.971700 0.592400
vt 0.989700 0.426800
vt 0.996300 0.451400
vt 0.896200 0.599000
vt 0.947100 0.599000
vt 0.947100 0.402200
vt 0.971700 0.408800
vt 0.896200 0.402200
vt 0.811800 0.599000
vt 0.811800 0.402200
vt 0.723500 0.599000
vt 0.723500 0.402200
vt 0.676600 0.402200
vt 0.652000 0.592400
vt 0.634000 0.426800
vt 0.627400 0.549800
vt 0.627400 0.451400
vt 0.634000 0.574400
vt 0.652000 0.408800
vt 0.676600 0.599000
vt 0.947100 0.402200
vt 0.971700 0.408800
vt 0.989700 0.426800
vt 0.896200 0.599000
vt 0.996300 0.549800
vt 0.971700 0.592400
vt 0.989700 0.574400
vt 0.947100 0.599000
vt 0.996300 0.451400
vt 0.896200 0.402200
vt 0.811800 0.599000
vt 0.811800 0.402200
vt 0.723500 0.599000
vt 0.723500 0.402200
vt 0.676600 0.599000
vt 0.627400 0.451400
vt 0.634000 0.574400
vt 0.627400 0.549800
vt 0.652000 0.592400
vt 0.652000 0.408800
vt 0.676600 0.402200
vt 0.634000 0.426800
vt 0.989700 0.426800
vt 0.996300 0.451400
vt 0.996300 0.549800
vt 0.896200 0.599000
vt 0.971700 0.592400
vt 0.947100 0.599000
vt 0.989700 0.574400
vt 0.947100 0.402200
vt 0.971700 0.408800
vt 0.896200 0.402200
vt 0.811800 0.599000
vt 0.811800 0.402200
vt 0.723500 0.599000
vt 0.723500 0.402200
vt 0.676600 0.402200
vt 0.652000 0.592400
vt 0.634000 0.426800
vt 0.627400 0.549800
vt 0.627400 0.451400
vt 0.652000 0.408800
vt 0.634000 0.574400
vt 0.676600 0.599000
vt 0.981200 0.390600
vt 0.956800 0.390600
vt 0.956800 0.000000
vt 0.981200 0.000000
vt 0.999000 0.390600
vt 0.999000 0.000000
vt 0.792400 0.390600
vt 0.745800 0.390600
vt 0.745800 0.000000
vt 0.792400 0.000000
vt 0.816900 0.390600
vt 0.816900 0.000000
vt 0.834700 0.390600
vt 0.834700 0.000000
vt 0.859100 0.390600
vt 0.859100 0.000000
vt 0.499500 0.390600
vt 0.481700 0.390600
vt 0.481700 0.000000
vt 0.499500 0.000000
vt 0.523900 0.390600
vt 0.523900 0.000000
vt 0.574500 0.000000
vt 0.574500 0.390600
vt 0.658200 0.000000
vt 0.658200 0.390600
vt 0.317300 0.390600
vt 0.292900 0.390600
vt 0.292900 0.000000
vt 0.317300 0.000000
vt 0.335200 0.390600
vt 0.335200 0.000000
vt 0.359600 0.390600
vt 0.359600 0.000000
vt 0.457200 0.390600
vt 0.457200 0.000000
vt 0.024400 0.390600
vt 0.000000 0.390600
vt 0.000000 0.000000
vt 0.024400 0.000000
vt 0.071000 0.000000
vt 0.071000 0.390600
vt 0.158700 0.000000
vt 0.158700 0.390600
vt 0.242300 0.000000
vt 0.242300 0.390600
vt 0.989700 0.426800
vt 0.996300 0.451400
vt 0.996300 0.549800
vt 0.896200 0.599000
vt 0.971700 0.592400
vt 0.947100 0.599000
vt 0.989700 0.574400
vt 0.627400 0.549800
vt 0.627400 0.451400
vt 0.634000 0.426800
vt 0.652000 0.592400
vt 0.676600 0.402200
vt 0.723500 0.599000
vt 0.723500 0.402200
vt 0.811800 0.402200
vt 0.811800 0.599000
vt 0.896200 0.402200
vt 0.947100 0.402200
vt 0.971700 0.408800
vt 0.652000 0.408800
vt 0.996300 0.549800
vt 0.989700 0.574400
vt 0.971700 0.592400
vt 0.989700 0.426800
vt 0.996300 0.451400
vt 0.896200 0.599000
vt 0.947100 0.599000
vt 0.947100 0.402200
vt 0.971700 0.408800
vt 0.896200 0.402200
vt 0.811800 0.599000
vt 0.811800 0.402200
vt 0.723500 0.599000
vt 0.723500 0.402200
vt 0.676600 0.599000
vt 0.627400 0.451400
vt 0.634000 0.574400
vt 0.627400 0.549800
vt 0.652000 0.592400
vt 0.652000 0.408800
vt 0.676600 0.402200
vt 0.634000 0.426800
vt 0.237500 0.570100
vt 0.230900 0.545500
vt 0.230900 0.447100
vt 0.328800 0.397900
vt 0.255500 0.404500
vt 0.280100 0.397900
vt 0.237500 0.422500
vt 0.280100 0.594700
vt 0.255500 0.588100
vt 0.328800 0.594700
vt 0.415400 0.397900
vt 0.415400 0.594700
vt 0.501600 0.397900
vt 0.501600 0.594700
vt 0.550700 0.397900
vt 0.599900 0.545500
vt 0.593300 0.422500
vt 0.599900 0.447100
vt 0.575300 0.404500
vt 0.575300 0.588100
vt 0.550700 0.594700
vt 0.593300 0.570100
vt 0.237500 0.570100
vt 0.230900 0.545500
vt 0.230900 0.447100
vt 0.328800 0.397900
vt 0.255500 0.404500
vt 0.280100 0.397900
vt 0.237500 0.422500
vt 0.599900 0.447100
vt 0.599900 0.545500
vt 0.593300 0.570100
vt 0.575300 0.404500
vt 0.550700 0.594700
vt 0.501600 0.397900
vt 0.501600 0.594700
vt 0.415400 0.594700
vt 0.415400 0.397900
vt 0.328800 0.594700
vt 0.280100 0.594700
vt 0.255500 0.588100
vt 0.575300 0.588100
vt 0.634000 0.574400
vt 0.676600 0.599000
vt 0.593300 0.422500
vt 0.550700 0.397900
vt 0.000800 0.495400
vt 0.000800 0.391000
vt 0.172300 0.495400
vt 0.172300 0.391000
vt 0.000800 0.495400
vt 0.000800 0.391000
vt 0.172300 0.495400
vt 0.172300 0.391000
vt 0.000800 0.495400
vt 0.000800 0.391000
vt 0.172300 0.495400
vt 0.172300 0.391000
vt 0.000800 0.495400
vt 0.000800 0.391000
vt 0.172300 0.495400
vt 0.172300 0.391000
vt 0.000800 0.495400
vt 0.000800 0.391000
vt 0.172300 0.495400
vt 0.172300 0.391000
vt 0.000800 0.495400
vt 0.000800 0.391000
vt 0.172300 0.495400
vt 0.172300 0.391000
vt 0.000800 0.495400
vt 0.000800 0.391000
vt 0.172300 0.495400
vt 0.172300 0.391000
vt 0.000800 0.495400
vt 0.000800 0.391000
vt 0.172300 0.495400
vt 0.172300 0.391000
vt 0.000800 0.495400
vt 0.000800 0.391000
vt 0.172300 0.495400
vt 0.172300 0.391000
vt 0.000800 0.495400
vt 0.000800 0.391000
vt 0.172300 0.495400
vt 0.172300 0.391000
vt 0.000800 0.602200
vt 0.000800 0.497800
vt 0.172300 0.602200
vt 0.172300 0.497800
vt 0.981200 0.390600
vt 0.956800 0.390600
vt 0.956800 0.000000
vt 0.981200 0.000000
vt 0.999000 0.390600
vt 0.999000 0.000000
vt 0.792400 0.390600
vt 0.745800 0.390600
vt 0.745800 0.000000
vt 0.792400 0.000000
vt 0.816900 0.390600
vt 0.816900 0.000000
vt 0.834700 0.390600
vt 0.834700 0.000000
vt 0.859100 0.390600
vt 0.859100 0.000000
vt 0.499500 0.390600
vt 0.481700 0.390600
vt 0.481700 0.000000
vt 0.499500 0.000000
vt 0.523900 0.390600
vt 0.523900 0.000000
vt 0.574500 0.000000
vt 0.574500 0.390600
vt 0.658200 0.000000
vt 0.658200 0.390600
vt 0.317300 0.390600
vt 0.292900 0.390600
vt 0.292900 0.000000
vt 0.317300 0.000000
vt 0.335200 0.390600
vt 0.335200 0.000000
vt 0.359600 0.390600
vt 0.359600 0.000000
vt 0.457200 0.390600
vt 0.457200 0.000000
vt 0.024400 0.390600
vt 0.000000 0.390600
vt 0.000000 0.000000
vt 0.024400 0.000000
vt 0.071000 0.000000
vt 0.071000 0.390600
vt 0.158700 0.000000
vt 0.158700 0.390600
vt 0.242300 0.000000
vt 0.242300 0.390600
vt 0.687300 0.997200
vt 0.669400 0.606600
vt 0.669400 0.997200
vt 0.687300 0.606600
vt 0.711700 0.997200
vt 0.711700 0.606600
vt 0.760000 0.997200
vt 0.760000 0.606600
vt 0.846000 0.606600
vt 0.846000 0.997200
vt 0.931500 0.606600
vt 0.931500 0.997200
vt 0.980200 0.606600
vt 0.980200 0.997200
vt 1.004600 0.997200
vt 1.004600 0.606600
vt 0.505100 0.997200
vt 0.480700 0.606600
vt 0.480700 0.997200
vt 0.505100 0.606600
vt 0.523000 0.997200
vt 0.523000 0.606600
vt 0.547400 0.997200
vt 0.547400 0.606600
vt 0.645000 0.997200
vt 0.645000 0.606600
vt 0.212200 0.997200
vt 0.187800 0.606600
vt 0.187800 0.997200
vt 0.212200 0.606600
vt 0.260900 0.997200
vt 0.260900 0.606600
vt 0.346400 0.606600
vt 0.346400 0.997200
vt 0.432400 0.606600
vt 0.432400 0.997200
vt 0.023500 0.997200
vt 0.005600 0.606600
vt 0.005600 0.997200
vt 0.023500 0.606600
vt 0.047900 0.997200
vt 0.047900 0.606600
vt 0.145500 0.997200
vt 0.145500 0.606600
vt 0.169900 0.997200
vt 0.169900 0.606600
vt 0.981200 0.390600
vt 0.956800 0.390600
vt 0.956800 0.000000
vt 0.981200 0.000000
vt 0.999000 0.390600
vt 0.999000 0.000000
vt 0.792400 0.390600
vt 0.745800 0.390600
vt 0.745800 0.000000
vt 0.792400 0.000000
vt 0.816900 0.390600
vt 0.816900 0.000000
vt 0.834700 0.390600
vt 0.834700 0.000000
vt 0.859100 0.390600
vt 0.859100 0.000000
vt 0.499500 0.390600
vt 0.481700 0.390600
vt 0.481700 0.000000
vt 0.499500 0.000000
vt 0.523900 0.390600
vt 0.523900 0.000000
vt 0.574500 0.000000
vt 0.574500 0.390600
vt 0.658200 0.000000
vt 0.658200 0.390600
vt 0.317300 0.390600
vt 0.292900 0.390600
vt 0.292900 0.000000
vt 0.317300 0.000000
vt 0.335200 0.390600
vt 0.335200 0.000000
vt 0.359600 0.390600
vt 0.359600 0.000000
vt 0.457200 0.390600
vt 0.457200 0.000000
vt 0.024400 0.390600
vt 0.000000 0.390600
vt 0.000000 0.000000
vt 0.024400 0.000000
vt 0.071000 0.000000
vt 0.071000 0.390600
vt 0.158700 0.000000
vt 0.158700 0.390600
vt 0.242300 0.000000
vt 0.242300 0.390600
vt 0.980200 0.606600
vt 1.004600 0.606600
vt 1.004600 0.997200
vt 0.980200 0.997200
vt 0.931500 0.997200
vt 0.931500 0.606600
vt 0.846000 0.997200
vt 0.846000 0.606600
vt 0.760000 0.997200
vt 0.760000 0.606600
vt 0.711700 0.606600
vt 0.711700 0.997200
vt 0.687300 0.606600
vt 0.687300 0.997200
vt 0.669400 0.606600
vt 0.669400 0.997200
vt 0.645000 0.606600
vt 0.645000 0.997200
vt 0.547400 0.606600
vt 0.547400 0.997200
vt 0.523000 0.606600
vt 0.523000 0.997200
vt 0.505100 0.606600
vt 0.505100 0.997200
vt 0.480700 0.606600
vt 0.480700 0.997200
vt 0.432400 0.997200
vt 0.432400 0.606600
vt 0.346400 0.997200
vt 0.346400 0.606600
vt 0.260900 0.997200
vt 0.260900 0.606600
vt 0.212200 0.606600
vt 0.212200 0.997200
vt 0.187800 0.606600
vt 0.187800 0.997200
vt 0.169900 0.606600
vt 0.169900 0.997200
vt 0.145500 0.606600
vt 0.145500 0.997200
vt 0.047900 0.606600
vt 0.047900 0.997200
vt 0.023500 0.606600
vt 0.023500 0.997200
vt 0.005600 0.606600
vt 0.005600 0.997200
vn 0.0000 1.0000 0.0000
vn -0.1042 0.0000 -0.9946
vn -0.1043 -0.0001 -0.9945
vn -0.1043 -0.0000 -0.9946
vn -0.1043 0.0000 -0.9945
vn 0.1042 0.0000 0.9946
vn 0.1042 0.0001 0.9946
vn 0.1043 -0.0000 0.9946
vn 0.1043 -0.0000 0.9945
vn 0.1040 -0.0000 0.9946
vn 0.0405 0.0000 -0.9992
vn 0.0403 -0.0000 -0.9992
vn 0.0403 0.0004 -0.9992
vn 0.0403 0.0001 -0.9992
vn 0.0404 0.0001 -0.9992
vn 0.0404 -0.0001 -0.9992
vn 0.0403 -0.0001 -0.9992
vn 0.0404 0.0000 -0.9992
vn -0.0404 -0.0001 0.9992
vn -0.0403 0.0000 0.9992
vn -0.0403 -0.0002 0.9992
vn -0.0404 -0.0000 0.9992
vn 0.1415 -0.0001 -0.9899
vn 0.1415 0.0000 -0.9899
vn 0.1416 -0.0000 -0.9899
vn 0.1416 -0.0001 -0.9899
vn 0.1418 0.0000 -0.9899
vn 0.1416 0.0001 -0.9899
vn -0.1416 0.0000 0.9899
vn -0.1416 0.0001 0.9899
vn -0.1419 -0.0001 0.9899
vn -0.1416 0.0002 0.9899
vn -0.1415 -0.0000 0.9899
vn -0.1415 0.0001 0.9899
vn -0.1417 -0.0002 0.9899
vn -0.7338 0.6713 -0.1049
vn -0.9671 0.2133 -0.1383
vn -0.9671 0.2133 -0.1384
vn -0.3321 0.9420 -0.0475
vn -0.7338 0.6713 -0.1050
vn -0.1332 -0.9909 -0.0191
vn -0.0868 -0.9961 -0.0124
vn -0.3321 -0.9420 -0.0475
vn -0.7338 -0.6713 -0.1050
vn -0.7338 -0.6713 -0.1049
vn -0.9671 -0.2133 -0.1383
vn -0.9671 -0.2133 -0.1384
vn 0.3321 -0.9420 0.0475
vn 0.7338 -0.6713 0.1049
vn 0.7338 -0.6713 0.1048
vn 0.1289 -0.9915 0.0184
vn 0.0839 -0.9964 0.0120
vn 0.0014 -1.0000 0.0002
vn -0.0868 -0.9962 -0.0124
vn 0.3321 0.9420 0.0476
vn 0.0245 0.9997 0.0035
vn 0.3321 0.9420 0.0475
vn 0.7338 0.6713 0.1050
vn 0.7338 0.6713 0.1049
vn 0.9671 0.2133 0.1383
vn 0.9671 -0.2133 0.1384
vn 0.9671 0.2133 0.1384
vn 0.9671 -0.2133 0.1383
vn -0.0201 0.9998 -0.0029
vn 0.0868 0.9962 0.0124
vn 0.0868 0.9961 0.0124
vn -0.0014 1.0000 -0.0002
vn -0.0839 0.9964 -0.0120
vn 0.0000 0.0000 1.0000
vn -0.0000 -0.0000 -1.0000
vn -0.7406 0.6713 -0.0299
vn -0.9762 0.2133 -0.0394
vn -0.3352 0.9420 -0.0134
vn -0.3352 0.9421 -0.0135
vn -0.1345 -0.9909 -0.0054
vn -0.0877 -0.9961 -0.0035
vn -0.3352 -0.9421 -0.0135
vn -0.3352 -0.9420 -0.0135
vn -0.7406 -0.6713 -0.0299
vn -0.9762 -0.2133 -0.0394
vn 0.3040 -0.9526 0.0123
vn 0.7142 -0.6993 0.0288
vn 0.7142 -0.6993 0.0289
vn 0.1058 -0.9944 0.0043
vn 0.0649 -0.9979 0.0026
vn -0.0058 -1.0000 -0.0002
vn 0.3398 0.9404 0.0137
vn 0.0453 0.9990 0.0018
vn 0.7406 0.6713 0.0299
vn 0.9762 0.2133 0.0394
vn 0.9723 -0.2303 0.0393
vn 0.7142 -0.6993 0.0287
vn -0.0203 0.9998 -0.0008
vn -0.3352 0.9420 -0.0135
vn 0.1006 0.9949 0.0041
vn 0.0357 0.9994 0.0014
vn -0.0449 0.9990 -0.0018
vn -0.4811 0.8748 0.0572
vn -0.8364 0.5404 0.0917
vn -0.8544 0.5109 0.0953
vn -0.4573 0.8877 0.0531
vn -0.1223 0.9923 0.0186
vn -0.1099 0.9938 0.0162
vn 0.0061 1.0000 -0.0049
vn 0.0515 0.9987 -0.0015
vn 0.0926 0.9956 -0.0174
vn -0.0016 0.9996 -0.0281
vn 0.0634 0.9972 -0.0386
vn -0.0176 0.9988 -0.0452
vn 0.1294 0.9897 -0.0607
vn 0.1007 0.9930 -0.0612
vn 0.4521 0.8871 -0.0927
vn 0.4528 0.8868 -0.0928
vn -0.5586 -0.8294 0.0115
vn -0.1676 -0.9853 -0.0327
vn -0.2134 -0.9762 -0.0390
vn -0.4659 -0.8848 0.0067
vn -0.8544 -0.5156 0.0647
vn -0.8431 -0.5338 0.0650
vn -0.9855 -0.1388 0.0971
vn -0.9849 -0.1429 0.0975
vn -0.9856 0.1319 0.1054
vn -0.9835 0.1474 0.1046
vn 0.2229 -0.9746 -0.0218
vn 0.3977 -0.9166 -0.0402
vn 0.5303 -0.8466 -0.0451
vn 0.1243 -0.9921 -0.0191
vn 0.1128 -0.9930 -0.0360
vn 0.0149 -0.9998 -0.0106
vn -0.0125 -0.9994 -0.0312
vn 0.0669 -0.9961 -0.0575
vn -0.0522 -0.9976 -0.0452
vn -0.0083 -0.9984 -0.0556
vn 0.8302 0.5455 -0.1149
vn 0.8380 0.5334 -0.1151
vn 0.9824 0.1506 -0.1107
vn 0.9837 0.1419 -0.1103
vn 0.9855 -0.1374 -0.0993
vn 0.9805 -0.1696 -0.0995
vn 0.8585 -0.5067 -0.0788
vn 0.8029 -0.5910 -0.0775
vn -0.7412 0.6713 -0.0000
vn -0.9770 0.2133 0.0000
vn -0.3355 0.9420 -0.0000
vn -0.1346 -0.9909 0.0000
vn -0.0877 -0.9961 0.0000
vn -0.3355 -0.9420 0.0000
vn -0.7412 -0.6713 -0.0000
vn -0.9770 -0.2133 -0.0000
vn -0.9770 0.2133 0.0001
vn -0.9770 -0.2133 -0.0001
vn 0.3355 -0.9420 -0.0000
vn 0.7412 -0.6713 0.0000
vn 0.1302 -0.9915 0.0000
vn 0.0847 -0.9964 -0.0000
vn 0.0014 -1.0000 -0.0000
vn 0.3355 0.9420 0.0000
vn 0.0248 0.9997 0.0000
vn 0.7412 0.6713 -0.0000
vn 0.9770 0.2133 -0.0000
vn 0.9770 -0.2133 0.0001
vn 0.9770 0.2133 -0.0001
vn 0.9770 -0.2133 -0.0000
vn -0.0203 0.9998 0.0000
vn 0.0877 0.9961 0.0000
vn -0.0014 1.0000 0.0000
vn -0.0847 0.9964 0.0000
vn 0.1005 -0.9949 -0.0000
vn 0.4133 -0.9106 0.0000
vn 0.4133 -0.9106 -0.0001
vn 0.0000 -1.0000 -0.0000
vn -0.1005 -0.9949 0.0000
vn -0.4133 -0.9106 -0.0000
vn -0.8086 -0.5884 0.0000
vn -0.9857 -0.1683 0.0000
vn -0.8085 -0.5884 0.0000
vn -0.9857 0.1683 0.0000
vn -0.8085 0.5884 0.0000
vn -0.4133 0.9106 0.0000
vn -0.0405 0.9992 0.0001
vn -0.0405 0.9992 -0.0000
vn 0.1031 0.9947 0.0000
vn -0.0002 1.0000 0.0000
vn -0.1124 0.9937 -0.0000
vn 0.0313 0.9995 -0.0000
vn 0.4133 0.9106 -0.0000
vn 0.8086 0.5884 0.0001
vn 0.8086 0.5884 -0.0000
vn 0.9857 0.1683 0.0001
vn 0.8085 0.5884 0.0000
vn 0.9857 0.1683 -0.0000
vn 0.9857 -0.1683 0.0000
vn 0.8085 -0.5884 0.0000
vn 0.8086 -0.5884 0.0000
usemtl _decor_paperstack_column2decor_paperstack_shader.001
s 1
f 1/1/1 2/2/1 3/3/1
f 4/4/1 3/3/1 2/2/1
f 5/5/1 6/6/1 7/7/1
f 8/8/1 7/7/1 6/6/1
f 9/9/1 10/10/1 11/11/1
f 12/12/1 11/11/1 10/10/1
f 13/13/1 14/14/1 15/15/1
f 16/16/1 15/15/1 14/14/1
f 17/17/1 18/18/1 19/19/1
f 20/20/1 19/19/1 18/18/1
f 21/21/1 22/22/1 23/23/1
f 24/24/1 23/23/1 22/22/1
f 25/25/1 26/26/1 27/27/1
f 28/28/1 27/27/1 26/26/1
f 29/29/1 30/30/1 31/31/1
f 32/32/1 31/31/1 30/30/1
f 33/33/2 34/34/2 35/35/2
f 34/34/3 36/36/3 37/37/3
f 33/33/2 36/36/2 34/34/2
f 38/38/4 36/36/4 33/33/4
f 38/38/5 33/33/5 39/39/5
f 40/40/2 41/41/2 42/42/2
f 43/43/4 41/41/4 40/40/4
f 44/44/2 41/41/2 43/43/2
f 44/44/5 43/43/5 45/45/5
f 45/45/2 46/46/2 44/44/2
f 46/46/2 45/45/2 47/47/2
f 47/47/5 48/48/5 46/46/5
f 48/48/5 47/47/5 36/36/5
f 48/48/2 36/36/2 49/49/2
f 49/49/4 36/36/4 38/38/4
f 49/49/5 38/38/5 50/50/5
f 43/43/5 40/40/5 51/51/5
f 52/52/6 53/53/6 54/54/6
f 53/53/7 55/55/7 56/56/7
f 52/52/6 55/55/6 53/53/6
f 57/57/8 55/55/8 52/52/8
f 57/57/9 52/52/9 58/58/10
f 59/59/9 57/57/9 60/60/9
f 59/59/8 55/55/8 57/57/8
f 61/61/6 55/55/6 59/59/6
f 61/61/9 62/62/9 55/55/9
f 62/62/9 61/61/9 63/63/9
f 63/63/6 64/64/6 62/62/6
f 64/64/6 63/63/6 65/65/6
f 66/66/9 64/64/9 65/65/9
f 66/66/9 67/67/9 64/64/9
f 68/68/8 67/67/8 66/66/8
f 69/69/6 67/67/6 68/68/6
f 69/69/6 68/68/6 70/70/6
f 68/68/9 66/66/9 71/71/9
f 72/72/9 67/67/9 69/69/9
f 64/64/9 67/67/9 73/73/9
f 74/74/5 41/41/5 75/75/5
f 75/75/5 41/41/5 44/44/5
f 75/75/4 44/44/4 76/76/4
f 77/77/11 78/78/11 79/79/11
f 77/77/12 79/79/12 80/80/12
f 79/79/12 81/81/12 80/80/12
f 81/81/13 82/82/13 80/80/13
f 79/79/14 83/83/14 81/81/14
f 84/84/15 85/85/15 77/77/15
f 84/84/12 77/77/12 80/80/12
f 86/86/12 84/84/12 80/80/12
f 86/86/12 80/80/12 87/87/12
f 87/87/12 88/88/12 86/86/12
f 88/88/12 87/87/12 89/89/12
f 89/89/12 90/90/12 88/88/12
f 90/90/12 89/89/12 91/91/12
f 90/90/12 91/91/12 92/92/12
f 93/93/12 90/90/12 92/92/12
f 94/94/16 93/93/16 92/92/16
f 93/93/12 95/95/12 90/90/12
f 91/91/17 96/96/17 97/97/17
f 91/91/18 97/97/18 92/92/18
f 97/97/12 98/98/12 92/92/12
f 99/99/19 100/100/19 101/101/19
f 102/102/20 103/103/20 99/99/20
f 102/102/20 99/99/20 104/104/20
f 99/99/20 101/101/20 104/104/20
f 101/101/21 105/105/21 104/104/21
f 106/106/21 107/107/21 102/102/21
f 106/106/20 102/102/20 104/104/20
f 108/108/22 106/106/22 104/104/22
f 108/108/20 104/104/20 109/109/20
f 109/109/20 110/110/20 108/108/20
f 110/110/20 109/109/20 111/111/20
f 111/111/20 112/112/20 110/110/20
f 113/113/20 112/112/20 111/111/20
f 113/113/20 111/111/20 114/114/20
f 115/115/20 113/113/20 114/114/20
f 116/116/20 115/115/20 114/114/20
f 116/116/20 117/117/20 115/115/20
f 118/118/20 116/116/20 114/114/20
f 115/115/19 119/119/19 113/113/19
f 111/111/20 120/120/20 114/114/20
f 121/121/23 122/122/23 123/123/23
f 121/121/24 123/123/24 124/124/24
f 123/123/25 125/125/25 124/124/25
f 125/125/25 126/126/25 124/124/25
f 125/125/24 127/127/24 126/126/24
f 126/126/26 128/128/26 124/124/26
f 123/123/25 129/129/25 125/125/25
f 130/130/25 121/121/25 124/124/25
f 130/130/25 124/124/25 131/131/25
f 131/131/25 132/132/25 130/130/25
f 132/132/25 131/131/25 133/133/25
f 133/133/25 134/134/25 132/132/25
f 134/134/24 133/133/24 135/135/24
f 134/134/25 135/135/25 136/136/25
f 135/135/25 137/137/25 136/136/25
f 137/137/27 138/138/27 136/136/27
f 135/135/25 139/139/25 137/137/25
f 140/140/28 141/141/28 134/134/28
f 140/140/25 134/134/25 136/136/25
f 142/142/26 140/140/26 136/136/26
f 143/143/29 144/144/29 145/145/29
f 143/143/29 145/145/29 146/146/29
f 145/145/29 147/147/29 146/146/29
f 147/147/30 148/148/30 146/146/30
f 145/145/31 149/149/31 147/147/31
f 150/150/32 151/151/32 143/143/32
f 150/150/29 143/143/29 146/146/29
f 152/152/29 150/150/29 146/146/29
f 152/152/29 146/146/29 153/153/29
f 153/153/29 154/154/29 152/152/29
f 154/154/29 153/153/29 155/155/29
f 155/155/29 156/156/29 154/154/29
f 157/157/29 156/156/29 155/155/29
f 157/157/29 155/155/29 158/158/29
f 159/159/33 157/157/33 158/158/33
f 160/160/29 159/159/29 158/158/29
f 160/160/29 161/161/29 159/159/29
f 159/159/34 162/162/34 157/157/34
f 163/163/29 160/160/29 158/158/29
f 155/155/35 164/164/35 158/158/35
f 165/165/36 166/166/37 167/167/37
f 167/167/38 168/168/36 165/165/36
f 169/169/39 165/165/36 168/168/36
f 168/168/40 170/170/39 169/169/39
f 171/171/41 172/172/42 173/173/42
f 173/173/42 174/174/41 171/171/41
f 175/175/43 171/171/41 174/174/41
f 174/174/41 176/176/43 175/175/43
f 177/177/44 175/175/43 176/176/43
f 176/176/43 178/178/45 177/177/45
f 179/179/46 177/177/45 178/178/45
f 178/178/45 180/180/46 179/179/46
f 166/166/38 179/179/46 180/180/46
f 180/180/47 167/167/37 166/166/37
f 181/181/48 182/182/49 183/183/49
f 183/183/50 184/184/48 181/181/48
f 185/185/51 181/181/48 184/184/48
f 184/184/48 186/186/51 185/185/51
f 185/185/51 186/186/51 187/187/52
f 187/187/52 188/188/52 185/185/51
f 188/188/52 187/187/52 189/189/53
f 189/189/53 190/190/53 188/188/52
f 190/190/53 189/189/53 173/173/54
f 173/173/42 172/172/42 190/190/53
f 191/191/55 192/192/56 193/193/56
f 193/193/56 194/194/57 191/191/57
f 195/195/58 191/191/57 194/194/57
f 194/194/57 196/196/59 195/195/59
f 197/197/60 195/195/59 196/196/59
f 196/196/59 198/198/60 197/197/60
f 199/199/61 197/197/60 198/198/60
f 198/198/62 200/200/63 199/199/63
f 182/182/49 199/199/63 200/200/63
f 200/200/63 183/183/49 182/182/49
f 201/201/64 169/202/39 170/203/39
f 170/203/39 202/204/64 201/201/64
f 201/201/64 202/204/64 203/205/65
f 203/205/65 204/206/65 201/201/64
f 204/206/66 203/205/66 205/207/67
f 205/207/67 206/208/67 204/206/66
f 206/208/67 205/207/67 207/209/68
f 207/209/68 208/210/68 206/208/67
f 192/192/56 208/210/68 207/209/68
f 207/209/68 193/193/56 192/192/56
f 209/211/69 210/212/69 211/213/69
f 209/211/69 211/213/69 212/214/69
f 211/213/69 213/215/69 212/214/69
f 213/215/69 214/216/69 212/214/69
f 211/213/69 215/217/69 213/215/69
f 216/218/69 217/219/69 218/220/69
f 216/218/69 218/220/69 219/221/69
f 218/220/69 220/222/69 219/221/69
f 220/222/69 221/223/69 219/221/69
f 220/222/69 222/224/69 221/223/69
f 221/223/69 222/224/69 223/225/69
f 223/225/69 224/226/69 221/223/69
f 224/226/69 223/225/69 225/227/69
f 225/227/69 212/214/69 224/226/69
f 225/227/69 226/228/69 212/214/69
f 226/228/69 209/211/69 212/214/69
f 226/228/69 227/229/69 209/211/69
f 218/220/69 228/230/69 220/222/69
f 229/231/70 230/232/70 231/233/70
f 232/234/70 233/235/70 229/231/70
f 232/234/70 229/231/70 234/236/70
f 229/231/70 231/233/70 234/236/70
f 231/233/70 235/237/70 234/236/70
f 236/238/70 237/239/70 232/234/70
f 236/238/70 232/234/70 234/236/70
f 238/240/70 236/238/70 234/236/70
f 238/240/70 234/236/70 239/241/70
f 239/241/70 240/242/70 238/240/70
f 240/242/70 239/241/70 241/243/70
f 241/243/70 242/244/70 240/242/70
f 242/244/70 241/243/70 243/245/70
f 242/244/70 243/245/70 244/246/70
f 243/245/70 245/247/70 244/246/70
f 245/247/70 246/248/70 244/246/70
f 243/245/70 247/249/70 245/247/70
f 248/250/70 249/251/70 242/244/70
f 248/250/70 242/244/70 244/246/70
f 250/252/70 248/250/70 244/246/70
f 251/253/70 252/254/70 253/255/70
f 251/253/70 253/255/70 254/256/70
f 253/255/70 255/257/70 254/256/70
f 255/257/70 256/258/70 254/256/70
f 253/255/70 257/259/70 255/257/70
f 258/260/70 259/261/70 251/253/70
f 258/260/70 251/253/70 254/256/70
f 260/262/70 258/260/70 254/256/70
f 260/262/70 254/256/70 261/263/70
f 261/263/70 262/264/70 260/262/70
f 262/264/70 261/263/70 263/265/70
f 263/265/70 264/266/70 262/264/70
f 264/266/70 263/265/70 265/267/70
f 264/266/70 265/267/70 266/268/70
f 265/267/70 267/269/70 266/268/70
f 267/269/70 268/270/70 266/268/70
f 265/267/70 269/271/70 267/269/70
f 270/272/70 271/273/70 264/266/70
f 270/272/70 264/266/70 266/268/70
f 272/274/70 270/272/70 266/268/70
f 273/275/69 274/276/69 275/277/69
f 273/275/69 275/277/69 276/278/69
f 275/277/69 277/279/69 276/278/69
f 277/279/69 278/280/69 276/278/69
f 275/277/69 279/281/69 277/279/69
f 280/282/69 281/283/69 282/284/69
f 280/282/69 282/284/69 283/285/69
f 282/284/69 284/286/69 283/285/69
f 284/286/69 285/287/69 283/285/69
f 284/286/69 286/288/69 285/287/69
f 285/287/69 286/288/69 287/289/69
f 287/289/69 288/290/69 285/287/69
f 288/290/69 287/289/69 289/291/69
f 289/291/69 276/278/69 288/290/69
f 289/291/69 290/292/69 276/278/69
f 290/292/69 273/275/69 276/278/69
f 290/292/69 291/293/69 273/275/69
f 282/284/69 292/294/69 284/286/69
f 293/295/69 216/218/69 219/221/69
f 221/223/69 294/296/69 219/221/69
f 295/297/69 280/282/69 283/285/69
f 285/287/69 296/298/69 283/285/69
f 297/299/1 298/300/1 299/301/1
f 300/302/1 299/301/1 298/300/1
f 301/303/1 302/304/1 303/305/1
f 304/306/1 303/305/1 302/304/1
f 305/307/1 306/308/1 307/309/1
f 308/310/1 307/309/1 306/308/1
f 309/311/1 310/312/1 311/313/1
f 312/314/1 311/313/1 310/312/1
f 313/315/1 314/316/1 315/317/1
f 316/318/1 315/317/1 314/316/1
f 317/319/1 318/320/1 319/321/1
f 320/322/1 319/321/1 318/320/1
f 321/323/1 322/324/1 323/325/1
f 324/326/1 323/325/1 322/324/1
f 325/327/1 326/328/1 327/329/1
f 328/330/1 327/329/1 326/328/1
f 329/331/1 330/332/1 331/333/1
f 332/334/1 331/333/1 330/332/1
f 333/335/1 334/336/1 335/337/1
f 336/338/1 335/337/1 334/336/1
f 337/339/1 338/340/1 339/341/1
f 340/342/1 339/341/1 338/340/1
f 341/343/71 342/344/72 343/345/72
f 343/345/72 344/346/71 341/343/71
f 345/347/73 341/343/71 344/346/71
f 344/346/71 346/348/74 345/347/74
f 347/349/75 348/350/76 349/351/76
f 349/351/76 350/352/75 347/349/75
f 351/353/77 347/349/75 350/352/75
f 350/352/75 352/354/78 351/353/78
f 353/355/79 351/353/78 352/354/78
f 352/354/77 354/356/79 353/355/79
f 355/357/80 353/355/79 354/356/79
f 354/356/79 356/358/80 355/357/80
f 342/344/72 355/357/80 356/358/80
f 356/358/80 343/345/72 342/344/72
f 357/359/81 358/360/82 359/361/82
f 359/361/83 360/362/81 357/359/81
f 361/363/84 357/359/81 360/362/81
f 360/362/81 362/364/84 361/363/84
f 361/363/84 362/364/84 363/365/85
f 363/365/85 364/366/85 361/363/84
f 364/366/85 363/365/85 365/367/86
f 365/367/86 366/368/86 364/366/85
f 366/368/86 365/367/86 349/351/76
f 349/351/76 348/350/76 366/368/86
f 367/369/87 368/370/88 369/371/88
f 369/371/88 370/372/87 367/369/87
f 371/373/89 367/369/87 370/372/87
f 370/372/87 372/374/89 371/373/89
f 373/375/90 371/373/89 372/374/89
f 372/374/89 374/376/90 373/375/90
f 375/377/91 373/375/90 374/376/90
f 374/376/90 376/378/91 375/377/91
f 358/360/92 375/377/91 376/378/91
f 376/378/91 359/361/82 358/360/82
f 377/379/93 345/380/74 346/381/74
f 346/381/94 378/382/93 377/379/93
f 377/379/93 378/382/93 379/383/95
f 379/383/95 380/384/95 377/379/93
f 380/384/95 379/383/95 381/385/96
f 381/385/96 382/386/96 380/384/95
f 382/386/96 381/385/96 383/387/97
f 383/387/97 384/388/97 382/386/96
f 368/370/88 384/388/97 383/387/97
f 383/387/97 369/371/88 368/370/88
f 385/389/98 386/390/99 387/391/100
f 386/390/99 385/389/98 388/392/101
f 389/393/102 388/392/101 385/389/98
f 388/392/101 389/393/102 390/394/103
f 391/395/104 390/394/103 389/393/102
f 390/394/103 391/395/104 392/396/105
f 391/395/104 393/397/106 392/396/105
f 393/397/106 391/395/104 394/398/107
f 394/398/107 395/399/108 393/397/106
f 395/399/108 394/398/107 396/400/109
f 396/400/109 397/401/110 395/399/108
f 397/401/110 396/400/109 398/402/111
f 399/403/112 397/401/110 398/402/111
f 397/401/110 399/403/112 400/404/113
f 401/405/114 402/406/115 403/407/116
f 402/406/115 401/405/114 404/408/117
f 405/409/118 404/408/117 401/405/114
f 404/408/117 405/409/118 406/410/119
f 407/411/120 406/410/119 405/409/118
f 406/410/119 407/411/120 408/412/121
f 409/413/122 408/412/121 407/411/120
f 408/412/121 409/413/122 410/414/123
f 387/391/100 410/414/123 409/413/122
f 410/414/123 387/391/100 386/390/99
f 411/415/124 412/416/125 413/417/126
f 412/416/125 411/415/124 414/418/127
f 415/419/128 414/418/127 411/415/124
f 414/418/127 415/419/128 416/420/129
f 415/419/128 417/421/130 416/420/129
f 417/421/130 415/419/128 418/422/131
f 418/422/131 419/423/132 417/421/130
f 419/423/132 418/422/131 420/424/133
f 420/424/133 402/406/115 419/423/132
f 402/406/115 420/424/133 403/407/116
f 421/425/134 400/426/113 399/427/112
f 400/426/113 421/425/134 422/428/135
f 423/429/136 422/428/135 421/425/134
f 422/428/135 423/429/136 424/430/137
f 425/431/138 424/430/137 423/429/136
f 424/430/137 425/431/138 426/432/139
f 427/433/140 426/432/139 425/431/138
f 426/432/139 427/433/140 428/434/141
f 413/417/126 428/434/141 427/433/140
f 428/434/141 413/417/126 412/416/125
f 429/435/142 430/436/143 431/437/143
f 431/437/143 432/438/142 429/435/142
f 433/439/144 429/435/142 432/438/142
f 432/438/142 434/440/144 433/439/144
f 435/441/145 436/442/146 437/443/146
f 437/443/146 438/444/145 435/441/145
f 439/445/147 435/441/145 438/444/145
f 438/444/145 440/446/147 439/445/147
f 441/447/148 439/445/147 440/446/147
f 440/446/147 442/448/148 441/447/148
f 443/449/149 441/447/148 442/448/148
f 442/448/148 444/450/149 443/449/149
f 430/436/150 443/449/149 444/450/149
f 444/450/151 431/437/143 430/436/143
f 445/451/152 446/452/153 447/453/153
f 447/453/153 448/454/152 445/451/152
f 449/455/154 445/451/152 448/454/152
f 448/454/152 450/456/154 449/455/154
f 449/455/154 450/456/154 451/457/155
f 451/457/155 452/458/155 449/455/154
f 452/458/155 451/457/155 453/459/156
f 453/459/156 454/460/156 452/458/155
f 454/460/156 453/459/156 437/443/146
f 437/443/146 436/442/146 454/460/156
f 455/461/157 456/462/158 457/463/158
f 457/463/158 458/464/157 455/461/157
f 459/465/159 455/461/157 458/464/157
f 458/464/157 460/466/159 459/465/159
f 461/467/160 459/465/159 460/466/159
f 460/466/159 462/468/160 461/467/160
f 463/469/161 461/467/160 462/468/160
f 462/468/162 464/470/163 463/469/163
f 446/452/153 463/469/163 464/470/163
f 464/470/163 447/453/153 446/452/153
f 465/471/164 433/472/144 434/473/144
f 434/473/144 466/474/164 465/471/164
f 465/471/164 466/474/164 467/475/165
f 467/475/165 468/476/165 465/471/164
f 468/476/165 467/475/165 469/477/166
f 469/477/166 470/478/166 468/476/165
f 470/478/166 469/477/166 471/479/167
f 471/479/167 472/480/167 470/478/166
f 456/462/158 472/480/167 471/479/167
f 471/479/167 457/463/158 456/462/158
f 473/481/168 474/482/169 475/483/169
f 475/483/170 476/484/168 473/481/168
f 473/481/168 476/484/168 477/485/171
f 477/485/171 478/486/171 473/481/168
f 478/486/171 477/485/171 479/487/171
f 479/487/171 480/488/171 478/486/171
f 480/488/171 479/487/171 481/489/171
f 481/489/171 482/490/171 480/488/171
f 483/491/172 482/490/171 481/489/171
f 481/489/171 484/492/172 483/491/172
f 485/493/173 483/491/172 484/492/172
f 484/492/172 486/494/173 485/493/173
f 487/495/174 485/493/173 486/494/173
f 486/494/173 488/496/174 487/495/174
f 489/497/175 487/495/176 488/496/176
f 488/496/176 490/498/175 489/497/175
f 491/499/177 489/497/175 490/498/175
f 490/498/175 492/500/177 491/499/177
f 493/501/178 491/499/177 492/500/177
f 492/500/177 494/502/178 493/501/178
f 495/503/179 493/501/178 494/502/178
f 494/502/178 496/504/179 495/503/179
f 497/505/180 495/503/179 496/504/179
f 496/504/179 498/506/181 497/505/181
f 497/505/181 498/506/181 499/507/182
f 499/507/182 500/508/182 497/505/181
f 500/508/182 499/507/182 501/509/183
f 501/509/183 502/510/183 500/508/182
f 502/510/183 501/509/183 503/511/184
f 503/511/184 504/512/184 502/510/183
f 505/513/185 504/512/184 503/511/184
f 503/511/184 506/514/185 505/513/185
f 507/515/186 505/513/185 506/514/185
f 506/514/185 508/516/186 507/515/186
f 509/517/187 507/515/186 508/516/186
f 508/516/186 510/518/188 509/517/188
f 511/519/189 509/517/190 510/518/190
f 510/518/190 512/520/191 511/519/191
f 513/521/192 511/519/191 512/520/191
f 512/520/191 514/522/192 513/521/192
f 515/523/193 513/521/192 514/522/192
f 514/522/192 516/524/193 515/523/193
f 474/525/169 515/523/194 516/524/194
f 516/524/194 475/526/169 474/525/169
