# Blender v2.83.1 OBJ File: ''
# www.blender.org
mtllib table_3.mtl
v 0.929832 0.713540 -0.408428
v 0.984834 0.713540 -0.225583
v 1.004159 0.713540 -0.035514
v -0.870370 0.713540 -0.408428
v -0.780434 0.713540 -0.576778
v -0.659281 0.713540 -0.724318
v -0.944697 0.713540 -0.035514
v 0.029592 0.713540 -1.010105
v 0.718743 0.713540 -0.724318
v 0.839896 0.713540 -0.576778
v -0.926115 0.713540 -0.225583
v -0.511742 0.713540 -0.845842
v -0.343206 0.713540 -0.935778
v -0.160454 0.713540 -0.990780
v 0.219637 0.713540 -0.990780
v 0.402482 0.713540 -0.935778
v 0.570832 0.713540 -0.845842
v -0.511742 0.749217 -0.845842
v -0.659281 0.749217 -0.724318
v -0.780434 0.749217 -0.576778
v -0.926115 0.749217 -0.225583
v -0.870370 0.749217 -0.408428
v 0.219637 0.749217 -0.990780
v -0.160454 0.749217 -0.990780
v -0.343206 0.749217 -0.935778
v 0.029592 0.749217 -1.010105
v -0.944697 0.749217 -0.035514
v -0.926115 0.749217 0.154600
v 0.984834 0.749217 0.154600
v 0.839896 0.749217 -0.576778
v 0.570832 0.749217 -0.845842
v 0.718743 0.749217 -0.724318
v 0.402482 0.749217 -0.935778
v 1.004159 0.749217 -0.035514
v 0.984834 0.749217 -0.225583
v 0.929832 0.749217 -0.408428
v 0.839896 0.749217 0.505796
v 0.929832 0.749217 0.337445
v 0.570832 0.749217 0.774488
v 0.718743 0.749217 0.653335
v -0.160454 0.749217 0.920169
v -0.780434 0.749217 0.505796
v -0.870370 0.749217 0.337445
v -0.659281 0.749217 0.653335
v -0.511742 0.749217 0.774488
v -0.343206 0.749217 0.864424
v 0.029592 0.749217 0.938751
v 0.219637 0.749217 0.920169
v 0.402482 0.749217 0.864424
v -0.659281 0.713540 0.653335
v -0.780434 0.713540 0.505796
v -0.870370 0.713540 0.337445
v -0.926115 0.713540 0.154600
v 0.029592 0.713540 0.938751
v -0.343206 0.713540 0.864424
v -0.511742 0.713540 0.774488
v -0.160454 0.713540 0.920169
v 0.402482 0.713540 0.864424
v 0.219637 0.713540 0.920169
v 0.718743 0.713540 0.653335
v 0.570832 0.713540 0.774488
v 0.984834 0.713540 0.154600
v 0.929832 0.713540 0.337445
v 0.839896 0.713540 0.505796
v 0.033401 0.092212 -0.099784
v -0.015945 0.092212 -0.086173
v -0.052075 0.092212 -0.049009
v -0.052075 0.092212 0.052540
v -0.015945 0.092212 0.089704
v 0.033401 0.092212 0.103315
v 0.118923 0.092212 -0.049009
v 0.082781 0.092212 -0.086173
v -0.065315 0.092212 0.001754
v 0.199197 0.036467 -0.293592
v 0.033401 0.036467 -0.339304
v -0.132302 0.036467 -0.293592
v -0.253641 0.036467 -0.168722
v -0.298052 0.036467 0.001754
v -0.253641 0.036467 0.172253
v -0.206629 0.020115 -0.425894
v -0.382413 0.020115 -0.245279
v -0.446706 0.020115 0.001754
v -0.382413 0.020115 0.248810
v -0.132302 0.036467 0.297123
v -0.206629 0.020115 0.429610
v 0.033401 0.036467 0.342833
v 0.033401 0.020115 0.495762
v 0.199197 0.036467 0.297123
v 0.273524 0.020115 0.429610
v 0.320535 0.036467 0.172253
v 0.449308 0.020115 0.248810
v 0.082781 0.092212 0.089704
v 0.118923 0.092212 0.052540
v 0.132117 0.092212 0.001754
v 0.364946 0.036467 0.001754
v 0.320535 0.036467 -0.168722
v 0.513600 0.020115 0.001752
v 0.449308 0.020115 -0.245279
v 0.273524 0.020115 -0.425894
v 0.033401 0.020115 -0.492045
v -0.382413 0.000000 -0.245279
v -0.206629 0.000000 -0.425894
v -0.446706 -0.000000 0.001754
v 0.033401 0.000000 -0.492045
v 0.273524 0.000000 -0.425894
v 0.273524 -0.000000 0.429610
v -0.206629 -0.000000 0.429610
v 0.033401 -0.000000 0.495762
v -0.382413 -0.000000 0.248810
v 0.449308 0.000000 -0.245279
v 0.513600 -0.000000 0.001752
v 0.449308 -0.000000 0.248810
v -0.096718 0.158502 0.024458
v -0.096718 0.037977 0.024458
v -0.096718 0.037977 -0.016654
v -0.096718 0.158502 -0.016654
v -0.144938 0.329827 0.024458
v -0.144938 0.329827 -0.016654
v -0.272409 0.500964 0.024458
v -0.272409 0.500964 -0.016654
v -0.524006 0.715770 0.024458
v -0.524006 0.715770 -0.016654
v -0.156180 0.155158 0.024458
v -0.156180 0.037977 0.024458
v -0.219823 0.316819 0.024458
v -0.345063 0.478295 0.024458
v -0.642186 0.716513 0.024458
v -0.156180 0.155158 -0.016654
v -0.156180 0.037977 -0.016654
v -0.219823 0.316819 -0.016654
v -0.345063 0.478295 -0.016654
v -0.642186 0.716513 -0.016654
v 0.056767 0.158502 0.132302
v 0.056767 0.037977 0.132302
v 0.015621 0.037977 0.132302
v 0.015621 0.158502 0.132302
v 0.056767 0.329827 0.180615
v 0.015621 0.329827 0.180615
v 0.056767 0.500964 0.308086
v 0.015621 0.500964 0.308086
v 0.056767 0.715769 0.559683
v 0.015621 0.715769 0.559683
v 0.056767 0.155158 0.191764
v 0.056767 0.037977 0.191764
v 0.056767 0.316819 0.255500
v 0.056767 0.478295 0.380555
v 0.056767 0.716513 0.677863
v 0.015621 0.155158 0.191764
v 0.015621 0.037977 0.191764
v 0.015621 0.316819 0.255500
v 0.015621 0.478295 0.380555
v 0.015621 0.716513 0.677863
v 0.033401 0.712426 -0.258100
v 0.194179 0.712426 -0.400252
v 0.107867 0.492788 -0.169558
v 0.033401 0.492788 -0.109168
v 0.074513 0.333357 -0.093374
v 0.033401 0.333357 -0.060066
v 0.068753 0.195109 -0.080227
v 0.033401 0.195109 -0.051564
v 0.078275 0.076511 -0.102014
v 0.033401 0.076511 -0.065640
v -0.011469 0.076511 -0.102014
v -0.001940 0.195109 -0.080227
v -0.007682 0.333357 -0.093374
v -0.041019 0.492788 -0.169558
v -0.127378 0.712426 -0.400252
v -0.016038 0.076511 -0.046246
v -0.005534 0.195109 -0.036304
v -0.011864 0.333357 -0.042296
v -0.048591 0.492788 -0.077068
v -0.143730 0.712425 -0.182379
v -0.074931 0.076511 -0.041925
v -0.051936 0.195109 -0.032889
v -0.065780 0.333357 -0.038348
v -0.146239 0.492788 -0.069914
v -0.354912 0.712425 -0.165471
v -0.036513 0.076510 0.000572
v -0.021671 0.195109 0.000572
v -0.030613 0.333357 0.000572
v -0.082549 0.492788 0.000572
v -0.217035 0.712425 0.000572
v -0.354912 0.712425 0.166586
v -0.146239 0.492788 0.071029
v -0.065780 0.333357 0.039486
v -0.051936 0.195109 0.034051
v -0.074931 0.076510 0.043063
v 0.210531 0.712425 -0.182379
v 0.115392 0.492788 -0.077068
v 0.078694 0.333357 -0.042296
v 0.072376 0.195109 -0.036304
v 0.082875 0.076511 -0.046246
v 0.421434 0.712425 -0.165471
v 0.213133 0.492788 -0.069914
v 0.132580 0.333357 -0.038348
v 0.118738 0.195109 -0.032889
v 0.141779 0.076511 -0.041925
v 0.283929 0.712425 0.000572
v 0.149397 0.492788 0.000572
v 0.097461 0.333357 0.000572
v 0.088496 0.195109 0.000572
v 0.103315 0.076510 0.000572
v 0.421434 0.712425 0.166586
v 0.213133 0.492788 0.071029
v 0.132580 0.333357 0.039486
v 0.118738 0.195109 0.034051
v 0.141779 0.076510 0.043063
v 0.210531 0.712425 0.183495
v 0.115392 0.492788 0.078229
v 0.078694 0.333357 0.043434
v 0.072376 0.195109 0.037442
v 0.082875 0.076510 0.047384
v 0.194179 0.712425 0.401366
v 0.107867 0.492788 0.170674
v 0.074513 0.333357 0.094535
v 0.068753 0.195109 0.081389
v 0.078275 0.076510 0.103129
v 0.033401 0.712425 0.259216
v 0.033401 0.492788 0.110376
v 0.033401 0.333357 0.061180
v 0.033401 0.195109 0.052726
v 0.033401 0.076510 0.066755
v -0.127378 0.712425 0.401366
v -0.041019 0.492788 0.170674
v -0.007682 0.333357 0.094535
v -0.001940 0.195109 0.081389
v -0.011469 0.076510 0.103129
v -0.143730 0.712425 0.183495
v -0.048591 0.492788 0.078229
v -0.011864 0.333357 0.043434
v -0.005537 0.195109 0.037442
v -0.016038 0.076510 0.047384
v 0.015621 0.715770 -0.556710
v 0.015621 0.716513 -0.674890
v 0.015621 0.478295 -0.377581
v 0.015621 0.500964 -0.304926
v 0.015621 0.316819 -0.252341
v 0.015621 0.329827 -0.177549
v 0.015621 0.155158 -0.188698
v 0.015621 0.158502 -0.129236
v 0.015621 0.037977 -0.188698
v 0.015621 0.037977 -0.129236
v 0.056767 0.716513 -0.674890
v 0.056767 0.478295 -0.377581
v 0.056767 0.316819 -0.252341
v 0.056767 0.155158 -0.188698
v 0.056767 0.037977 -0.188698
v 0.056767 0.715770 -0.556710
v 0.056767 0.500964 -0.304926
v 0.056767 0.329827 -0.177549
v 0.056767 0.158502 -0.129236
v 0.056767 0.037977 -0.129236
v 0.163705 0.158502 0.018918
v 0.163705 0.037977 0.018918
v 0.223167 0.037977 0.018918
v 0.223167 0.155158 0.018918
v 0.212018 0.329827 0.018918
v 0.286717 0.316819 0.018918
v 0.339489 0.500964 0.018918
v 0.412144 0.478295 0.018918
v 0.591272 0.715770 0.018918
v 0.709080 0.716513 0.018918
v 0.163705 0.158502 -0.022217
v 0.163705 0.037977 -0.022217
v 0.212018 0.329827 -0.022217
v 0.339489 0.500964 -0.022217
v 0.591272 0.715770 -0.022217
v 0.223167 0.037977 -0.022217
v 0.223167 0.155158 -0.022217
v 0.286717 0.316819 -0.022217
v 0.412144 0.478295 -0.022217
v 0.709080 0.716513 -0.022217
vt 0.670900 0.845000
vt 0.657200 0.814300
vt 0.650400 0.781600
vt 0.984400 0.806500
vt 0.972200 0.837900
vt 0.954600 0.866100
vt 0.989300 0.740200
vt 0.840300 0.930400
vt 0.714400 0.895400
vt 0.690400 0.872300
vt 0.990200 0.773600
vt 0.931200 0.890300
vt 0.903800 0.909600
vt 0.873000 0.923200
vt 0.807100 0.931200
vt 0.773900 0.925500
vt 0.742700 0.913500
vt 0.964800 0.275400
vt 0.964800 0.332500
vt 0.953600 0.389200
vt 0.900400 0.489700
vt 0.932100 0.441900
vt 0.858900 0.078100
vt 0.931200 0.166000
vt 0.953600 0.219200
vt 0.899400 0.118700
vt 0.859900 0.530300
vt 0.812000 0.562300
vt 0.447300 0.119600
vt 0.644500 0.013700
vt 0.757800 0.024400
vt 0.701700 0.013700
vt 0.811000 0.046400
vt 0.487800 0.078600
vt 0.535200 0.046900
vt 0.588400 0.024900
vt 0.393800 0.220200
vt 0.415500 0.167500
vt 0.382600 0.334000
vt 0.382600 0.276400
vt 0.488500 0.531000
vt 0.702600 0.595700
vt 0.759300 0.584200
vt 0.645500 0.595700
vt 0.589400 0.584700
vt 0.536100 0.562700
vt 0.448000 0.490700
vt 0.416000 0.442900
vt 0.394000 0.390100
vt 0.924800 0.626200
vt 0.949200 0.649400
vt 0.968300 0.676800
vt 0.981900 0.707500
vt 0.798800 0.591300
vt 0.865200 0.596200
vt 0.896500 0.608400
vt 0.832500 0.590600
vt 0.735800 0.612300
vt 0.766100 0.598600
vt 0.685100 0.655800
vt 0.708000 0.631300
vt 0.649400 0.748300
vt 0.655300 0.715300
vt 0.667000 0.684100
vt 0.153200 0.175800
vt 0.163500 0.158700
vt 0.181300 0.148900
vt 0.219500 0.159200
vt 0.229900 0.176800
vt 0.229900 0.196800
vt 0.163500 0.213400
vt 0.153200 0.195800
vt 0.201800 0.148900
vt 0.062900 0.218300
vt 0.062900 0.150900
vt 0.097300 0.093300
vt 0.157000 0.060100
vt 0.226000 0.061000
vt 0.285600 0.095700
vt 0.055100 0.051300
vt 0.141500 0.003400
vt 0.241500 0.005400
vt 0.327900 0.055200
vt 0.320100 0.154800
vt 0.377900 0.140100
vt 0.320100 0.221700
vt 0.377900 0.237800
vt 0.285600 0.279800
vt 0.327900 0.321300
vt 0.226000 0.312500
vt 0.241500 0.369100
vt 0.219500 0.214400
vt 0.201800 0.223600
vt 0.181300 0.223600
vt 0.157000 0.311500
vt 0.097300 0.276900
vt 0.141500 0.367700
vt 0.055100 0.317900
vt 0.005100 0.232400
vt 0.005100 0.134800
vt 0.164600 0.387700
vt 0.189200 0.429700
vt 0.121800 0.362800
vt 0.189200 0.478000
vt 0.164600 0.519000
vt 0.004900 0.475100
vt 0.029600 0.385700
vt 0.004900 0.427200
vt 0.072400 0.362300
vt 0.121800 0.542700
vt 0.072400 0.542000
vt 0.029600 0.517300
vt 0.045200 0.599600
vt 0.045200 0.553700
vt 0.034300 0.553700
vt 0.034300 0.599600
vt 0.045200 0.671600
vt 0.034300 0.671600
vt 0.045200 0.755600
vt 0.034300 0.755600
vt 0.045200 0.874500
vt 0.034300 0.874500
vt 0.249000 0.573200
vt 0.202600 0.513400
vt 0.185200 0.527300
vt 0.232800 0.588600
vt 0.331800 0.641100
vt 0.314700 0.665000
vt 0.432600 0.694800
vt 0.420200 0.723100
vt 0.614300 0.748300
vt 0.579100 0.774900
vt 0.022500 0.598400
vt 0.022500 0.556900
vt 0.012200 0.556900
vt 0.012200 0.598400
vt 0.022500 0.665000
vt 0.012200 0.665000
vt 0.022500 0.740700
vt 0.012200 0.740700
vt 0.022500 0.868900
vt 0.012200 0.868900
vt 0.562000 0.712600
vt 0.639200 0.720900
vt 0.641600 0.699000
vt 0.566400 0.690900
vt 0.453900 0.683100
vt 0.465100 0.656300
vt 0.348900 0.624000
vt 0.366500 0.598600
vt 0.221200 0.516100
vt 0.225500 0.472200
vt 0.045200 0.599600
vt 0.045200 0.553700
vt 0.034300 0.553700
vt 0.034300 0.599600
vt 0.045200 0.671600
vt 0.034300 0.671600
vt 0.045200 0.755600
vt 0.034300 0.755600
vt 0.045200 0.874500
vt 0.034300 0.874500
vt 0.249000 0.573200
vt 0.202600 0.513400
vt 0.185200 0.527300
vt 0.232800 0.588600
vt 0.331800 0.641100
vt 0.314700 0.665000
vt 0.432600 0.694800
vt 0.420200 0.723100
vt 0.614300 0.748300
vt 0.579100 0.774900
vt 0.022500 0.598400
vt 0.022500 0.556900
vt 0.012200 0.556900
vt 0.012200 0.598400
vt 0.022500 0.665000
vt 0.012200 0.665000
vt 0.022500 0.740700
vt 0.012200 0.740700
vt 0.022500 0.868900
vt 0.012200 0.868900
vt 0.562000 0.712600
vt 0.639200 0.720900
vt 0.641600 0.699000
vt 0.566400 0.690900
vt 0.453900 0.683100
vt 0.465100 0.656300
vt 0.348900 0.624000
vt 0.366500 0.598600
vt 0.221200 0.516100
vt 0.225500 0.472200
vt 0.984900 0.572500
vt 0.984900 0.524400
vt 0.992200 0.524400
vt 0.992200 0.572500
vt 0.984900 0.627000
vt 0.992200 0.627000
vt 0.984900 0.321800
vt 0.984900 0.267100
vt 0.992200 0.267100
vt 0.992200 0.321800
vt 0.984900 0.368200
vt 0.992200 0.368200
vt 0.984900 0.421900
vt 0.992200 0.421900
vt 0.984900 0.469200
vt 0.992200 0.469200
vt 0.984900 0.062000
vt 0.984900 0.015600
vt 0.992200 0.015600
vt 0.992200 0.062000
vt 0.984900 0.116200
vt 0.992200 0.116200
vt 0.984900 0.163600
vt 0.992200 0.163600
vt 0.984900 0.218800
vt 0.992200 0.218800
vt 0.521500 0.960700
vt 0.471900 0.960700
vt 0.471900 0.946000
vt 0.521500 0.946000
vt 0.572800 0.960700
vt 0.572800 0.946000
vt 0.624500 0.960700
vt 0.624500 0.946000
vt 0.673800 0.960700
vt 0.673800 0.946000
vt 0.719700 0.960700
vt 0.719700 0.946000
vt 0.759800 0.960700
vt 0.759800 0.946000
vt 0.300800 0.960700
vt 0.251200 0.960700
vt 0.251200 0.946000
vt 0.300800 0.946000
vt 0.346400 0.960700
vt 0.346400 0.946000
vt 0.386500 0.960700
vt 0.386500 0.946000
vt 0.426300 0.960700
vt 0.426300 0.946000
vt 0.053300 0.960700
vt 0.013300 0.960700
vt 0.013300 0.946000
vt 0.053300 0.946000
vt 0.098900 0.960700
vt 0.098900 0.946000
vt 0.148300 0.960700
vt 0.148300 0.946000
vt 0.199800 0.960700
vt 0.199800 0.946000
vt 0.521000 0.987900
vt 0.471700 0.987900
vt 0.471700 0.973100
vt 0.521000 0.973100
vt 0.572300 0.987900
vt 0.572300 0.973100
vt 0.624000 0.987900
vt 0.624000 0.973100
vt 0.673300 0.987900
vt 0.673300 0.973100
vt 0.719200 0.987900
vt 0.719200 0.973100
vt 0.759300 0.987900
vt 0.759300 0.973100
vt 0.298600 0.987900
vt 0.249000 0.987900
vt 0.249000 0.973100
vt 0.298600 0.973100
vt 0.344000 0.987900
vt 0.344000 0.973100
vt 0.386000 0.987900
vt 0.386000 0.973100
vt 0.426000 0.987900
vt 0.426000 0.973100
vt 0.051000 0.987900
vt 0.011000 0.987900
vt 0.011000 0.973100
vt 0.051000 0.973100
vt 0.096600 0.987900
vt 0.096600 0.973100
vt 0.146000 0.987900
vt 0.146000 0.973100
vt 0.197500 0.987900
vt 0.197500 0.973100
vt 0.146200 0.674300
vt 0.179000 0.592800
vt 0.292500 0.735400
vt 0.278600 0.769900
vt 0.385000 0.804200
vt 0.377400 0.823200
vt 0.470200 0.843600
vt 0.463400 0.860100
vt 0.545900 0.865100
vt 0.537600 0.885900
vt 0.181300 0.581300
vt 0.197500 0.564500
vt 0.247600 0.625700
vt 0.234600 0.638900
vt 0.318100 0.687500
vt 0.303200 0.702900
vt 0.415500 0.741700
vt 0.388400 0.769800
vt 0.592300 0.792100
vt 0.531300 0.854100
vt 0.545900 0.865100
vt 0.537600 0.885900
vt 0.463400 0.860100
vt 0.470200 0.843600
vt 0.377400 0.823200
vt 0.385000 0.804200
vt 0.278600 0.769900
vt 0.292500 0.735400
vt 0.146200 0.674300
vt 0.179000 0.592800
vt 0.181300 0.581300
vt 0.197500 0.564500
vt 0.247600 0.625700
vt 0.234600 0.638900
vt 0.318100 0.687500
vt 0.303200 0.702900
vt 0.415500 0.741700
vt 0.388400 0.769800
vt 0.592300 0.792100
vt 0.531300 0.854100
vt 0.545900 0.865100
vt 0.537600 0.885900
vt 0.463400 0.860100
vt 0.470200 0.843600
vt 0.377400 0.823200
vt 0.385000 0.804200
vt 0.278600 0.769900
vt 0.292500 0.735400
vt 0.146200 0.674300
vt 0.179000 0.592800
vt 0.592300 0.792100
vt 0.531300 0.854100
vt 0.388400 0.769800
vt 0.415500 0.741700
vt 0.303200 0.702900
vt 0.318100 0.687500
vt 0.234600 0.638900
vt 0.247600 0.625700
vt 0.181300 0.581300
vt 0.197500 0.564500
vt 0.592300 0.792100
vt 0.531300 0.854100
vt 0.388400 0.769800
vt 0.415500 0.741700
vt 0.303200 0.702900
vt 0.318100 0.687500
vt 0.234600 0.638900
vt 0.247600 0.625700
vt 0.181300 0.581300
vt 0.197500 0.564500
vt 0.146200 0.674300
vt 0.179000 0.592800
vt 0.292500 0.735400
vt 0.278600 0.769900
vt 0.385000 0.804200
vt 0.377400 0.823200
vt 0.470200 0.843600
vt 0.463400 0.860100
vt 0.545900 0.865100
vt 0.537600 0.885900
vt 0.592300 0.792100
vt 0.531300 0.854100
vt 0.388400 0.769800
vt 0.415500 0.741700
vt 0.303200 0.702900
vt 0.318100 0.687500
vt 0.234600 0.638900
vt 0.247600 0.625700
vt 0.181300 0.581300
vt 0.197500 0.564500
vt 0.146200 0.674300
vt 0.179000 0.592800
vt 0.292500 0.735400
vt 0.278600 0.769900
vt 0.385000 0.804200
vt 0.377400 0.823200
vt 0.470200 0.843600
vt 0.463400 0.860100
vt 0.545900 0.865100
vt 0.537600 0.885900
vt 0.592300 0.792100
vt 0.531300 0.854100
vt 0.388400 0.769800
vt 0.415500 0.741700
vt 0.303200 0.702900
vt 0.318100 0.687500
vt 0.234600 0.638900
vt 0.247600 0.625700
vt 0.181300 0.581300
vt 0.197500 0.564500
vt 0.146200 0.674300
vt 0.179000 0.592800
vt 0.292500 0.735400
vt 0.278600 0.769900
vt 0.385000 0.804200
vt 0.377400 0.823200
vt 0.470200 0.843600
vt 0.463400 0.860100
vt 0.545900 0.865100
vt 0.537600 0.885900
vt 0.592300 0.792100
vt 0.531300 0.854100
vt 0.388400 0.769800
vt 0.415500 0.741700
vt 0.303200 0.702900
vt 0.318100 0.687500
vt 0.234600 0.638900
vt 0.247600 0.625700
vt 0.181300 0.581300
vt 0.197500 0.564500
vt 0.146200 0.674300
vt 0.179000 0.592800
vt 0.292500 0.735400
vt 0.278600 0.769900
vt 0.385000 0.804200
vt 0.377400 0.823200
vt 0.470200 0.843600
vt 0.463400 0.860100
vt 0.545900 0.865100
vt 0.537600 0.885900
vt 0.592300 0.792100
vt 0.531300 0.854100
vt 0.388400 0.769800
vt 0.415500 0.741700
vt 0.303200 0.702900
vt 0.318100 0.687500
vt 0.234600 0.638900
vt 0.247600 0.625700
vt 0.181300 0.581300
vt 0.197500 0.564500
vt 0.146200 0.674300
vt 0.179000 0.592800
vt 0.292500 0.735400
vt 0.278600 0.769900
vt 0.385000 0.804200
vt 0.377400 0.823200
vt 0.470200 0.843600
vt 0.463400 0.860100
vt 0.545900 0.865100
vt 0.537600 0.885900
vt 0.221200 0.516100
vt 0.225500 0.472200
vt 0.366500 0.598600
vt 0.348900 0.624000
vt 0.465100 0.656300
vt 0.453900 0.683100
vt 0.566400 0.690900
vt 0.562000 0.712600
vt 0.641600 0.699000
vt 0.639200 0.720900
vt 0.022500 0.868900
vt 0.012200 0.868900
vt 0.012200 0.740700
vt 0.022500 0.740700
vt 0.012200 0.665000
vt 0.022500 0.665000
vt 0.012200 0.598400
vt 0.022500 0.598400
vt 0.012200 0.556900
vt 0.022500 0.556900
vt 0.614300 0.748300
vt 0.579100 0.774900
vt 0.420200 0.723100
vt 0.432600 0.694800
vt 0.314700 0.665000
vt 0.331800 0.641100
vt 0.232800 0.588600
vt 0.249000 0.573200
vt 0.185200 0.527300
vt 0.202600 0.513400
vt 0.045200 0.874500
vt 0.034300 0.874500
vt 0.034300 0.755600
vt 0.045200 0.755600
vt 0.034300 0.671600
vt 0.045200 0.671600
vt 0.034300 0.599600
vt 0.045200 0.599600
vt 0.034300 0.553700
vt 0.045200 0.553700
vt 0.562000 0.712600
vt 0.639200 0.720900
vt 0.641600 0.699000
vt 0.566400 0.690900
vt 0.453900 0.683100
vt 0.465100 0.656300
vt 0.348900 0.624000
vt 0.366500 0.598600
vt 0.221200 0.516100
vt 0.225500 0.472200
vt 0.045200 0.599600
vt 0.045200 0.553700
vt 0.034300 0.553700
vt 0.034300 0.599600
vt 0.045200 0.671600
vt 0.034300 0.671600
vt 0.045200 0.755600
vt 0.034300 0.755600
vt 0.045200 0.874500
vt 0.034300 0.874500
vt 0.022500 0.598400
vt 0.022500 0.556900
vt 0.012200 0.556900
vt 0.012200 0.598400
vt 0.022500 0.665000
vt 0.012200 0.665000
vt 0.022500 0.740700
vt 0.012200 0.740700
vt 0.022500 0.868900
vt 0.012200 0.868900
vt 0.249000 0.573200
vt 0.202600 0.513400
vt 0.185200 0.527300
vt 0.232800 0.588600
vt 0.331800 0.641100
vt 0.314700 0.665000
vt 0.432600 0.694800
vt 0.420200 0.723100
vt 0.614300 0.748300
vt 0.579100 0.774900
vn 0.0000 -1.0000 -0.0000
vn -0.0000 1.0000 -0.0000
vn -0.0000 0.9911 -0.1333
vn -0.0688 0.9910 -0.1149
vn -0.1182 0.9908 -0.0659
vn -0.1182 0.9908 0.0659
vn -0.0688 0.9910 0.1149
vn -0.0000 0.9911 0.1333
vn 0.1182 0.9908 -0.0658
vn 0.0688 0.9910 -0.1150
vn -0.1360 0.9907 0.0000
vn 0.0804 0.9875 -0.1359
vn -0.0000 0.9876 -0.1567
vn -0.0805 0.9875 -0.1359
vn -0.1397 0.9871 -0.0787
vn -0.1616 0.9869 0.0000
vn -0.1397 0.9871 0.0786
vn -0.0543 0.9942 -0.0924
vn -0.0944 0.9941 -0.0536
vn -0.1093 0.9940 0.0000
vn -0.0944 0.9941 0.0535
vn -0.0804 0.9875 0.1358
vn -0.0542 0.9943 0.0923
vn -0.0000 0.9877 0.1566
vn -0.0000 0.9943 0.1063
vn 0.0804 0.9875 0.1358
vn 0.0542 0.9943 0.0923
vn 0.1397 0.9871 0.0786
vn 0.0944 0.9941 0.0536
vn 0.0687 0.9910 0.1149
vn 0.1182 0.9908 0.0658
vn 0.1359 0.9907 0.0000
vn 0.1615 0.9869 -0.0000
vn 0.1397 0.9871 -0.0786
vn 0.1093 0.9940 -0.0000
vn 0.0944 0.9941 -0.0536
vn 0.0543 0.9942 -0.0924
vn -0.0000 0.9943 -0.1064
vn 0.9906 0.1367 -0.0000
vn 1.0000 -0.0000 0.0000
vn 0.8973 0.4415 0.0000
vn 0.7302 0.6832 0.0000
vn 0.6493 0.7605 0.0000
vn 0.0000 -0.0000 1.0000
vn -0.9825 -0.1864 -0.0000
vn -1.0000 0.0000 0.0000
vn -0.8691 -0.4946 0.0000
vn -0.7128 -0.7014 0.0000
vn -0.6255 -0.7802 0.0000
vn 0.0000 0.0000 -1.0000
vn -0.0000 0.1370 -0.9906
vn 0.0000 0.4417 -0.8971
vn 0.0000 0.6832 -0.7302
vn -0.0000 0.6833 -0.7302
vn 0.0000 0.7605 -0.6493
vn 0.0000 -0.1867 0.9824
vn 0.0000 -0.4945 0.8692
vn 0.0000 -0.7012 0.7129
vn 0.0000 -0.7804 0.6253
vn 0.8713 0.0000 0.4908
vn 0.5091 0.0000 0.8607
vn -0.5089 0.0000 -0.8608
vn -0.8712 0.0000 -0.4910
vn 0.5089 0.0000 -0.8608
vn 0.8712 0.0000 -0.4910
vn -0.5091 0.0000 0.8607
vn -0.8713 0.0000 0.4908
vn 0.1954 0.0000 0.9807
vn 0.3832 0.0000 0.9237
vn -0.1955 0.0000 0.9807
vn -0.3831 0.0000 0.9237
vn -0.5554 0.0000 0.8316
vn -0.7071 0.0000 0.7071
vn 0.9244 0.0000 0.3815
vn 0.9807 0.0000 0.1955
vn 0.8315 0.0000 0.5556
vn 0.7067 0.0000 0.7075
vn 0.5551 0.0000 0.8318
vn 0.8315 0.0000 -0.5556
vn 0.7072 0.0000 -0.7070
vn 0.9244 0.0000 -0.3815
vn 0.9807 0.0000 -0.1955
vn -0.1956 0.0000 -0.9807
vn -0.3814 0.0000 -0.9244
vn 0.1955 0.0000 -0.9807
vn 0.3815 0.0000 -0.9244
vn 0.5557 0.0000 -0.8314
vn -0.9237 0.0000 -0.3832
vn -0.9807 -0.0000 -0.1954
vn -0.8315 0.0000 -0.5556
vn -0.7076 0.0000 -0.7066
vn -0.5560 0.0000 -0.8312
vn -0.8315 0.0000 0.5556
vn -0.9237 0.0000 0.3832
vn -0.9807 0.0000 0.1954
vn -0.5807 -0.4660 -0.6676
vn -0.5861 -0.4659 -0.6629
vn -0.5860 -0.3905 -0.7101
vn -0.5945 -0.3303 -0.7331
vn -0.6220 -0.1546 -0.7676
vn -0.6239 -0.1338 -0.7700
vn -0.6296 0.0238 -0.7766
vn -0.6296 0.0213 -0.7766
vn -0.6271 0.0918 -0.7735
vn -0.6270 0.0918 -0.7736
vn 0.6271 0.0917 -0.7735
vn 0.6297 0.0238 -0.7765
vn 0.6298 0.0213 -0.7765
vn 0.6222 -0.1547 -0.7674
vn 0.6242 -0.1339 -0.7697
vn 0.5748 -0.4097 -0.7083
vn 0.5990 -0.3347 -0.7275
vn 0.5815 -0.4619 -0.6697
vn 0.5905 -0.4529 -0.6679
vn -0.9922 0.0947 -0.0813
vn -0.9964 0.0220 -0.0815
vn -0.9964 0.0246 -0.0815
vn -0.9871 -0.1379 -0.0808
vn -0.9839 -0.1594 -0.0805
vn -0.9454 -0.3166 -0.0774
vn -0.9277 -0.3658 -0.0747
vn -0.9021 -0.4259 -0.0688
vn -0.9022 -0.4259 -0.0677
vn -0.0729 0.0898 -0.9933
vn -0.0733 0.0234 -0.9970
vn -0.0733 0.0207 -0.9971
vn -0.0722 -0.1520 -0.9857
vn -0.0724 -0.1303 -0.9888
vn -0.0676 -0.3782 -0.9233
vn -0.0703 -0.3222 -0.9441
vn -0.0697 -0.4547 -0.8879
vn -0.0710 -0.4561 -0.8871
vn -0.7386 0.0924 0.6678
vn -0.7386 0.0924 0.6677
vn -0.7415 0.0213 0.6706
vn -0.7415 0.0241 0.6706
vn -0.7352 -0.1340 0.6644
vn -0.7328 -0.1564 0.6622
vn -0.7057 -0.3087 0.6377
vn -0.6989 -0.3559 0.6203
vn -0.6959 -0.4129 0.5876
vn -0.7008 -0.4126 0.5819
vn -0.6940 -0.4168 -0.5871
vn -0.6959 -0.4261 -0.5780
vn -0.7115 -0.3039 -0.6336
vn -0.6992 -0.3342 -0.6320
vn -0.7352 -0.1341 -0.6644
vn -0.7328 -0.1565 -0.6622
vn -0.7417 0.0214 -0.6704
vn -0.7416 0.0241 -0.6704
vn -0.7386 0.0925 -0.6678
vn 0.9025 -0.4251 -0.0689
vn 0.9032 -0.4238 -0.0678
vn 0.9454 -0.3170 -0.0759
vn 0.9264 -0.3688 -0.0754
vn 0.9872 -0.1379 -0.0807
vn 0.9839 -0.1595 -0.0806
vn 0.9964 0.0219 -0.0821
vn 0.9963 0.0245 -0.0822
vn 0.9921 0.0947 -0.0818
vn 0.0700 -0.4540 -0.8882
vn 0.0712 -0.4539 -0.8882
vn 0.0688 -0.3813 -0.9219
vn 0.0691 -0.3230 -0.9439
vn 0.0722 -0.1521 -0.9857
vn 0.0725 -0.1304 -0.9888
vn 0.0734 0.0235 -0.9970
vn 0.0734 0.0208 -0.9971
vn 0.0729 0.0898 -0.9933
vn 0.0729 0.0897 -0.9933
vn 0.6945 -0.4170 0.5863
vn 0.6966 -0.4267 0.5768
vn 0.7116 -0.3037 0.6336
vn 0.6993 -0.3335 0.6323
vn 0.7356 -0.1344 0.6640
vn 0.7332 -0.1570 0.6617
vn 0.7418 0.0214 0.6703
vn 0.7416 0.0242 0.6704
vn 0.7383 0.0925 0.6681
vn 0.7382 0.0925 0.6682
vn 0.6964 -0.4128 -0.5870
vn 0.7015 -0.4125 -0.5811
vn 0.6988 -0.3560 -0.6204
vn 0.7054 -0.3088 -0.6380
vn 0.7331 -0.1566 -0.6618
vn 0.7356 -0.1342 -0.6640
vn 0.7419 0.0243 -0.6701
vn 0.7418 0.0214 -0.6703
vn 0.7384 0.0924 -0.6680
vn 0.7382 0.0922 -0.6682
vn 0.0699 -0.4546 0.8879
vn 0.0711 -0.4560 0.8871
vn 0.0706 -0.3224 0.9440
vn 0.0680 -0.3783 0.9232
vn 0.0725 -0.1303 0.9888
vn 0.0722 -0.1520 0.9857
vn 0.0729 0.0208 0.9971
vn 0.0729 0.0234 0.9971
vn 0.0728 0.0896 0.9933
vn 0.0729 0.0896 0.9933
vn 0.9022 -0.4257 0.0688
vn 0.9023 -0.4257 0.0677
vn 0.9278 -0.3656 0.0743
vn 0.9455 -0.3164 0.0770
vn 0.9839 -0.1594 0.0804
vn 0.9871 -0.1379 0.0808
vn 0.9963 0.0246 0.0821
vn 0.9964 0.0220 0.0821
vn 0.9921 0.0947 0.0818
vn 0.9921 0.0947 0.0819
vn -0.5813 -0.4619 0.6698
vn -0.5906 -0.4527 0.6680
vn -0.5982 -0.3353 0.7278
vn -0.5739 -0.4104 0.7087
vn -0.6243 -0.1337 0.7697
vn -0.6225 -0.1544 0.7673
vn -0.6297 0.0212 0.7766
vn -0.6296 0.0237 0.7766
vn -0.6271 0.0915 0.7736
vn -0.6270 0.0915 0.7736
vn 0.5807 -0.4659 0.6676
vn 0.5861 -0.4658 0.6629
vn 0.5857 -0.3904 0.7103
vn 0.5943 -0.3304 0.7333
vn 0.6226 -0.1547 0.7671
vn 0.6246 -0.1339 0.7694
vn 0.6298 0.0237 0.7764
vn 0.6297 0.0212 0.7765
vn 0.6271 0.0915 0.7735
vn 0.6271 0.0915 0.7736
vn -0.9024 -0.4253 0.0690
vn -0.9032 -0.4237 0.0678
vn -0.9452 -0.3173 0.0763
vn -0.9262 -0.3692 0.0759
vn -0.9871 -0.1379 0.0808
vn -0.9839 -0.1594 0.0805
vn -0.9964 0.0220 0.0816
vn -0.9964 0.0246 0.0816
vn -0.9922 0.0946 0.0813
vn -0.0700 -0.4540 0.8882
vn -0.0711 -0.4540 0.8882
vn -0.0692 -0.3814 0.9218
vn -0.0695 -0.3230 0.9438
vn -0.0723 -0.1521 0.9857
vn -0.0724 -0.1304 0.9888
vn -0.0729 0.0233 0.9971
vn -0.0729 0.0207 0.9971
vn -0.0728 0.0897 0.9933
vn -0.0729 0.0897 0.9933
vn 0.0000 -0.7804 -0.6253
vn 0.0000 -0.7015 -0.7127
vn 0.0000 -0.4946 -0.8691
vn 0.0000 -0.1864 -0.9825
vn 0.0000 0.7608 0.6490
vn 0.0000 0.6832 0.7302
vn 0.0000 0.4416 0.8972
vn 0.0000 0.1370 0.9906
vn -0.9906 0.1370 -0.0000
vn -0.8971 0.4417 0.0000
vn -0.7301 0.6833 0.0000
vn -0.7302 0.6832 -0.0000
vn -0.6490 0.7608 0.0000
vn 0.9825 -0.1862 -0.0000
vn 0.8691 -0.4947 0.0000
vn 0.7126 -0.7015 0.0000
vn 0.7127 -0.7015 0.0000
vn 0.6258 -0.7800 0.0000
usemtl table_diffuse_shader
s 1
f 1/1/1 2/2/1 3/3/1
f 4/4/1 5/5/1 6/6/1
f 4/4/1 6/6/1 7/7/1
f 6/6/1 8/8/1 7/7/1
f 8/8/1 3/3/1 7/7/1
f 8/8/1 9/9/1 3/3/1
f 9/9/1 1/1/1 3/3/1
f 9/9/1 10/10/1 1/1/1
f 11/11/1 4/4/1 7/7/1
f 6/6/1 12/12/1 13/13/1
f 6/6/1 13/13/1 8/8/1
f 13/13/1 14/14/1 8/8/1
f 8/8/1 15/15/1 16/16/1
f 8/8/1 16/16/1 9/9/1
f 16/16/1 17/17/1 9/9/1
f 18/18/2 19/19/2 20/20/2
f 18/18/2 20/20/2 21/21/2
f 20/20/2 22/22/2 21/21/2
f 23/23/2 18/18/2 21/21/2
f 23/23/2 24/24/2 18/18/2
f 24/24/2 25/25/2 18/18/2
f 23/23/2 26/26/2 24/24/2
f 27/27/2 28/28/2 21/21/2
f 29/29/2 23/23/2 21/21/2
f 29/29/2 30/30/2 23/23/2
f 30/30/2 31/31/2 23/23/2
f 30/30/2 32/32/2 31/31/2
f 31/31/2 33/33/2 23/23/2
f 29/29/2 34/34/2 35/35/2
f 29/29/2 35/35/2 30/30/2
f 35/35/2 36/36/2 30/30/2
f 37/37/2 38/38/2 29/29/2
f 39/39/2 40/40/2 37/37/2
f 39/39/2 37/37/2 29/29/2
f 41/41/2 39/39/2 29/29/2
f 41/41/2 29/29/2 21/21/2
f 42/42/2 41/41/2 21/21/2
f 28/28/2 42/42/2 21/21/2
f 28/28/2 43/43/2 42/42/2
f 42/42/2 44/44/2 45/45/2
f 42/42/2 45/45/2 41/41/2
f 45/45/2 46/46/2 41/41/2
f 41/41/2 47/47/2 48/48/2
f 41/41/2 48/48/2 39/39/2
f 48/48/2 49/49/2 39/39/2
f 50/50/1 51/51/1 52/52/1
f 50/50/1 52/52/1 7/7/1
f 52/52/1 53/53/1 7/7/1
f 54/54/1 50/50/1 7/7/1
f 54/54/1 55/55/1 50/50/1
f 55/55/1 56/56/1 50/50/1
f 54/54/1 57/57/1 55/55/1
f 58/58/1 59/59/1 54/54/1
f 3/3/1 54/54/1 7/7/1
f 3/3/1 60/60/1 54/54/1
f 60/60/1 58/58/1 54/54/1
f 60/60/1 61/61/1 58/58/1
f 3/3/1 62/62/1 63/63/1
f 3/3/1 63/63/1 60/60/1
f 63/63/1 64/64/1 60/60/1
f 65/65/3 66/66/4 67/67/5
f 68/68/6 69/69/7 70/70/8
f 68/68/6 70/70/8 67/67/5
f 70/70/8 71/71/9 67/67/5
f 71/71/9 65/65/3 67/67/5
f 71/71/9 72/72/10 65/65/3
f 73/73/11 68/68/6 67/67/5
f 65/65/3 72/72/10 74/74/12
f 74/74/12 75/75/13 65/65/3
f 66/66/4 65/65/3 75/75/13
f 75/75/13 76/76/14 66/66/4
f 67/67/5 66/66/4 76/76/14
f 76/76/14 77/77/15 67/67/5
f 73/73/11 67/67/5 77/77/15
f 77/77/15 78/78/16 73/73/11
f 68/68/6 73/73/11 78/78/16
f 78/78/16 79/79/17 68/68/6
f 77/77/15 76/76/14 80/80/18
f 80/80/18 81/81/19 77/77/15
f 78/78/16 77/77/15 81/81/19
f 81/81/19 82/82/20 78/78/16
f 79/79/17 78/78/16 82/82/20
f 82/82/20 83/83/21 79/79/17
f 84/84/22 79/79/17 83/83/21
f 83/83/21 85/85/23 84/84/22
f 69/69/7 68/68/6 79/79/17
f 79/79/17 84/84/22 69/69/7
f 70/70/8 69/69/7 84/84/22
f 84/84/22 86/86/24 70/70/8
f 86/86/24 84/84/22 85/85/23
f 85/85/23 87/87/25 86/86/24
f 88/88/26 86/86/24 87/87/25
f 87/87/25 89/89/27 88/88/26
f 90/90/28 88/88/26 89/89/27
f 89/89/27 91/91/29 90/90/28
f 92/92/30 70/70/8 86/86/24
f 86/86/24 88/88/26 92/92/30
f 93/93/31 92/92/30 88/88/26
f 88/88/26 90/90/28 93/93/31
f 94/94/32 93/93/31 90/90/28
f 90/90/28 95/95/33 94/94/32
f 71/71/9 94/94/32 95/95/33
f 95/95/33 96/96/34 71/71/9
f 72/72/10 71/71/9 96/96/34
f 96/96/34 74/74/12 72/72/10
f 70/70/8 92/92/30 93/93/31
f 70/70/8 93/93/31 71/71/9
f 93/93/31 94/94/32 71/71/9
f 95/95/33 90/90/28 91/91/29
f 91/91/29 97/97/35 95/95/33
f 96/96/34 95/95/33 97/97/35
f 97/97/35 98/98/36 96/96/34
f 74/74/12 96/96/34 98/98/36
f 98/98/36 99/99/37 74/74/12
f 75/75/13 74/74/12 99/99/37
f 99/99/37 100/100/38 75/75/13
f 76/76/14 75/75/13 100/100/38
f 100/100/38 80/80/18 76/76/14
f 101/101/1 102/102/1 103/103/1
f 102/102/1 104/104/1 105/105/1
f 102/102/1 105/105/1 103/103/1
f 105/105/1 106/106/1 103/103/1
f 106/106/1 107/107/1 103/103/1
f 106/106/1 108/108/1 107/107/1
f 107/107/1 109/109/1 103/103/1
f 105/105/1 110/110/1 111/111/1
f 105/105/1 111/111/1 106/106/1
f 111/111/1 112/112/1 106/106/1
f 113/113/39 114/114/40 115/115/40
f 115/115/40 116/116/39 113/113/39
f 117/117/41 113/113/39 116/116/39
f 116/116/39 118/118/41 117/117/41
f 119/119/42 117/117/41 118/118/41
f 118/118/41 120/120/42 119/119/42
f 121/121/43 119/119/42 120/120/42
f 120/120/42 122/122/43 121/121/43
f 123/123/44 124/124/44 114/125/44
f 114/125/44 113/126/44 123/123/44
f 125/127/44 123/123/44 113/126/44
f 113/126/44 117/128/44 125/127/44
f 126/129/44 125/127/44 117/128/44
f 117/128/44 119/130/44 126/129/44
f 127/131/44 126/129/44 119/130/44
f 119/130/44 121/132/44 127/131/44
f 128/133/45 129/134/46 124/135/46
f 124/135/46 123/136/45 128/133/45
f 130/137/47 128/133/45 123/136/45
f 123/136/45 125/138/47 130/137/47
f 131/139/48 130/137/47 125/138/47
f 125/138/47 126/140/48 131/139/48
f 132/141/49 131/139/48 126/140/48
f 126/140/48 127/142/49 132/141/49
f 116/143/50 115/144/50 129/145/50
f 129/145/50 128/146/50 116/143/50
f 118/147/50 116/143/50 128/146/50
f 128/146/50 130/148/50 118/147/50
f 120/149/50 118/147/50 130/148/50
f 130/148/50 131/150/50 120/149/50
f 122/151/50 120/149/50 131/150/50
f 131/150/50 132/152/50 122/151/50
f 133/153/51 134/154/50 135/155/50
f 135/155/50 136/156/51 133/153/51
f 137/157/52 133/153/51 136/156/51
f 136/156/51 138/158/52 137/157/52
f 139/159/53 137/157/52 138/158/52
f 138/158/52 140/160/54 139/159/53
f 141/161/55 139/159/53 140/160/54
f 140/160/53 142/162/55 141/161/55
f 143/163/40 144/164/40 134/165/40
f 134/165/40 133/166/40 143/163/40
f 145/167/40 143/163/40 133/166/40
f 133/166/40 137/168/40 145/167/40
f 146/169/40 145/167/40 137/168/40
f 137/168/40 139/170/40 146/169/40
f 147/171/40 146/169/40 139/170/40
f 139/170/40 141/172/40 147/171/40
f 148/173/56 149/174/44 144/175/44
f 144/175/44 143/176/56 148/173/56
f 150/177/57 148/173/56 143/176/56
f 143/176/56 145/178/57 150/177/57
f 151/179/58 150/177/57 145/178/57
f 145/178/57 146/180/58 151/179/58
f 152/181/59 151/179/58 146/180/58
f 146/180/58 147/182/59 152/181/59
f 136/183/46 135/184/46 149/185/46
f 149/185/46 148/186/46 136/183/46
f 138/187/46 136/183/46 148/186/46
f 148/186/46 150/188/46 138/187/46
f 140/189/46 138/187/46 150/188/46
f 150/188/46 151/190/46 140/189/46
f 142/191/46 140/189/46 151/190/46
f 151/190/46 152/192/46 142/191/46
f 112/193/60 111/194/40 97/195/40
f 97/195/40 91/196/60 112/193/60
f 106/197/61 112/193/60 91/196/60
f 91/196/60 89/198/61 106/197/61
f 102/199/62 101/200/63 81/201/63
f 81/201/63 80/202/62 102/199/62
f 104/203/50 102/199/62 80/202/62
f 80/202/62 100/204/50 104/203/50
f 105/205/64 104/203/50 100/204/50
f 100/204/50 99/206/64 105/205/64
f 110/207/65 105/205/64 99/206/64
f 99/206/64 98/208/65 110/207/65
f 111/194/40 110/207/65 98/208/65
f 98/208/65 97/195/40 111/194/40
f 108/209/44 106/210/61 89/211/61
f 89/211/61 87/212/44 108/209/44
f 107/213/66 108/209/44 87/212/44
f 87/212/44 85/214/66 107/213/66
f 109/215/67 107/213/66 85/214/66
f 85/214/66 83/216/67 109/215/67
f 103/217/46 109/215/67 83/216/67
f 83/216/67 82/218/46 103/217/46
f 101/200/63 103/217/46 82/218/46
f 82/218/46 81/201/63 101/200/63
f 59/219/68 58/220/69 49/221/69
f 49/221/69 48/222/68 59/219/68
f 54/223/44 59/219/68 48/222/68
f 48/222/68 47/224/44 54/223/44
f 57/225/70 54/223/44 47/224/44
f 47/224/44 41/226/70 57/225/70
f 55/227/71 57/225/70 41/226/70
f 41/226/70 46/228/71 55/227/71
f 56/229/72 55/227/71 46/228/71
f 46/228/71 45/230/72 56/229/72
f 50/231/73 56/229/72 45/230/72
f 45/230/72 44/232/73 50/231/73
f 63/233/74 62/234/75 29/235/75
f 29/235/75 38/236/74 63/233/74
f 64/237/76 63/233/74 38/236/74
f 38/236/74 37/238/76 64/237/76
f 60/239/77 64/237/76 37/238/76
f 37/238/76 40/240/77 60/239/77
f 61/241/78 60/239/77 40/240/77
f 40/240/77 39/242/78 61/241/78
f 58/220/69 61/241/78 39/242/78
f 39/242/78 49/221/69 58/220/69
f 10/243/79 9/244/80 32/245/80
f 32/245/80 30/246/79 10/243/79
f 1/247/81 10/243/79 30/246/79
f 30/246/79 36/248/81 1/247/81
f 2/249/82 1/247/81 36/248/81
f 36/248/81 35/250/82 2/249/82
f 3/251/40 2/249/82 35/250/82
f 35/250/82 34/252/40 3/251/40
f 62/234/75 3/251/40 34/252/40
f 34/252/40 29/235/75 62/234/75
f 14/253/83 13/254/84 25/255/84
f 25/255/84 24/256/83 14/253/83
f 8/257/50 14/253/83 24/256/83
f 24/256/83 26/258/50 8/257/50
f 15/259/85 8/257/50 26/258/50
f 26/258/50 23/260/85 15/259/85
f 16/261/86 15/259/85 23/260/85
f 23/260/85 33/262/86 16/261/86
f 17/263/87 16/261/86 33/262/86
f 33/262/86 31/264/87 17/263/87
f 9/265/80 17/263/87 31/264/87
f 31/264/87 32/266/80 9/265/80
f 4/267/88 11/268/89 21/269/89
f 21/269/89 22/270/88 4/267/88
f 5/271/90 4/267/88 22/270/88
f 22/270/88 20/272/90 5/271/90
f 6/273/91 5/271/90 20/272/90
f 20/272/90 19/274/91 6/273/91
f 12/275/92 6/273/91 19/274/91
f 19/274/91 18/276/92 12/275/92
f 13/254/84 12/275/92 18/276/92
f 18/276/92 25/255/84 13/254/84
f 51/277/93 50/278/73 44/279/73
f 44/279/73 42/280/93 51/277/93
f 52/281/94 51/277/93 42/280/93
f 42/280/93 43/282/94 52/281/94
f 53/283/95 52/281/94 43/282/94
f 43/282/94 28/284/95 53/283/95
f 7/285/46 53/283/95 28/284/95
f 28/284/95 27/286/46 7/285/46
f 11/268/89 7/285/46 27/286/46
f 27/286/46 21/269/89 11/268/89
f 153/287/96 154/288/97 155/289/98
f 155/289/98 156/290/99 153/287/96
f 156/290/99 155/289/98 157/291/100
f 157/291/100 158/292/101 156/290/99
f 158/292/101 157/291/100 159/293/102
f 159/293/102 160/294/103 158/292/101
f 160/294/103 159/293/102 161/295/104
f 161/295/104 162/296/105 160/294/103
f 162/297/106 163/298/106 164/299/107
f 164/299/107 160/300/108 162/297/106
f 160/300/108 164/299/107 165/301/109
f 165/301/109 158/302/110 160/300/108
f 158/302/110 165/301/109 166/303/111
f 166/303/111 156/304/112 158/302/110
f 156/304/112 166/303/111 167/305/113
f 167/305/113 153/306/114 156/304/112
f 163/307/115 168/308/115 169/309/116
f 169/309/116 164/310/117 163/307/115
f 164/310/117 169/309/116 170/311/118
f 170/311/118 165/312/119 164/310/117
f 165/312/119 170/311/118 171/313/120
f 171/313/120 166/314/121 165/312/119
f 166/314/121 171/313/120 172/315/122
f 172/315/122 167/316/123 166/314/121
f 168/317/124 173/318/124 174/319/125
f 174/319/125 169/320/126 168/317/124
f 169/320/126 174/319/125 175/321/127
f 175/321/127 170/322/128 169/320/126
f 170/322/128 175/321/127 176/323/129
f 176/323/129 171/324/130 170/322/128
f 171/324/130 176/323/129 177/325/131
f 177/325/131 172/326/132 171/324/130
f 173/327/133 178/328/134 179/329/135
f 179/329/135 174/330/136 173/327/133
f 174/330/136 179/329/135 180/331/137
f 180/331/137 175/332/138 174/330/136
f 175/332/138 180/331/137 181/333/139
f 181/333/139 176/334/140 175/332/138
f 176/334/140 181/333/139 182/335/141
f 182/335/141 177/336/142 176/334/140
f 183/337/143 182/338/144 181/339/145
f 181/339/145 184/340/146 183/337/143
f 184/340/146 181/339/145 180/341/147
f 180/341/147 185/342/148 184/340/146
f 185/342/148 180/341/147 179/343/149
f 179/343/149 186/344/150 185/342/148
f 186/344/150 179/343/149 178/345/151
f 178/345/151 187/346/151 186/344/150
f 154/347/152 188/348/153 189/349/154
f 189/349/154 155/350/155 154/347/152
f 155/350/155 189/349/154 190/351/156
f 190/351/156 157/352/157 155/350/155
f 157/352/157 190/351/156 191/353/158
f 191/353/158 159/354/159 157/352/157
f 159/354/159 191/353/158 192/355/160
f 192/355/160 161/356/160 159/354/159
f 188/357/161 193/358/162 194/359/163
f 194/359/163 189/360/164 188/357/161
f 189/360/164 194/359/163 195/361/165
f 195/361/165 190/362/166 189/360/164
f 190/362/166 195/361/165 196/363/167
f 196/363/167 191/364/168 190/362/166
f 191/364/168 196/363/167 197/365/169
f 197/365/169 192/366/170 191/364/168
f 193/367/171 198/368/172 199/369/173
f 199/369/173 194/370/174 193/367/171
f 194/370/174 199/369/173 200/371/175
f 200/371/175 195/372/176 194/370/174
f 195/372/176 200/371/175 201/373/177
f 201/373/177 196/374/178 195/372/176
f 196/374/178 201/373/177 202/375/179
f 202/375/179 197/376/180 196/374/178
f 198/377/181 203/378/182 204/379/183
f 204/379/183 199/380/184 198/377/181
f 199/380/184 204/379/183 205/381/185
f 205/381/185 200/382/186 199/380/184
f 200/382/186 205/381/185 206/383/187
f 206/383/187 201/384/188 200/382/186
f 201/384/188 206/383/187 207/385/189
f 207/385/189 202/386/190 201/384/188
f 203/387/191 208/388/192 209/389/193
f 209/389/193 204/390/194 203/387/191
f 204/390/194 209/389/193 210/391/195
f 210/391/195 205/392/196 204/390/194
f 205/392/196 210/391/195 211/393/197
f 211/393/197 206/394/198 205/392/196
f 206/394/198 211/393/197 212/395/199
f 212/395/199 207/396/200 206/394/198
f 208/397/201 213/398/202 214/399/203
f 214/399/203 209/400/204 208/397/201
f 209/400/204 214/399/203 215/401/205
f 215/401/205 210/402/206 209/400/204
f 210/402/206 215/401/205 216/403/207
f 216/403/207 211/404/208 210/402/206
f 211/404/208 216/403/207 217/405/209
f 217/405/209 212/406/210 211/404/208
f 213/407/211 218/408/212 219/409/213
f 219/409/213 214/410/214 213/407/211
f 214/410/214 219/409/213 220/411/215
f 220/411/215 215/412/216 214/410/214
f 215/412/216 220/411/215 221/413/217
f 221/413/217 216/414/218 215/412/216
f 216/414/218 221/413/217 222/415/219
f 222/415/219 217/416/220 216/414/218
f 218/417/221 223/418/222 224/419/223
f 224/419/223 219/420/224 218/417/221
f 219/420/224 224/419/223 225/421/225
f 225/421/225 220/422/226 219/420/224
f 220/422/226 225/421/225 226/423/227
f 226/423/227 221/424/228 220/422/226
f 221/424/228 226/423/227 227/425/229
f 227/425/229 222/426/230 221/424/228
f 223/427/231 228/428/232 229/429/233
f 229/429/233 224/430/234 223/427/231
f 224/430/234 229/429/233 230/431/235
f 230/431/235 225/432/236 224/430/234
f 225/432/236 230/431/235 231/433/237
f 231/433/237 226/434/238 225/432/236
f 226/434/238 231/433/237 232/435/239
f 232/435/239 227/436/239 226/434/238
f 228/437/240 183/438/241 184/439/242
f 184/439/242 229/440/243 228/437/240
f 229/440/243 184/439/242 185/441/244
f 185/441/244 230/442/245 229/440/243
f 230/442/245 185/441/244 186/443/246
f 186/443/246 231/444/247 230/442/245
f 231/444/247 186/443/246 187/445/248
f 187/445/248 232/446/249 231/444/247
f 233/447/46 234/448/46 235/449/46
f 235/449/46 236/450/46 233/447/46
f 236/450/46 235/449/46 237/451/46
f 237/451/46 238/452/46 236/450/46
f 238/452/46 237/451/46 239/453/46
f 239/453/46 240/454/46 238/452/46
f 240/454/46 239/453/46 241/455/46
f 241/455/46 242/456/46 240/454/46
f 234/457/250 243/458/250 244/459/251
f 244/459/251 235/460/251 234/457/250
f 235/460/251 244/459/251 245/461/252
f 245/461/252 237/462/252 235/460/251
f 237/462/252 245/461/252 246/463/253
f 246/463/253 239/464/253 237/462/252
f 239/464/253 246/463/253 247/465/50
f 247/465/50 241/466/50 239/464/253
f 243/467/40 248/468/40 249/469/40
f 249/469/40 244/470/40 243/467/40
f 244/470/40 249/469/40 250/471/40
f 250/471/40 245/472/40 244/470/40
f 245/472/40 250/471/40 251/473/40
f 251/473/40 246/474/40 245/472/40
f 246/474/40 251/473/40 252/475/40
f 252/475/40 247/476/40 246/474/40
f 248/477/254 233/478/254 236/479/255
f 236/479/255 249/480/255 248/477/254
f 249/480/255 236/479/255 238/481/256
f 238/481/256 250/482/256 249/480/255
f 250/482/256 238/481/256 240/483/257
f 240/483/257 251/484/257 250/482/256
f 251/484/257 240/483/257 242/485/44
f 242/485/44 252/486/44 251/484/257
f 253/487/44 254/488/44 255/489/44
f 255/489/44 256/490/44 253/487/44
f 257/491/44 253/487/44 256/490/44
f 256/490/44 258/492/44 257/491/44
f 259/493/44 257/491/44 258/492/44
f 258/492/44 260/494/44 259/493/44
f 261/495/44 259/493/44 260/494/44
f 260/494/44 262/496/44 261/495/44
f 263/497/258 264/498/46 254/499/46
f 254/499/46 253/500/258 263/497/258
f 265/501/259 263/497/258 253/500/258
f 253/500/258 257/502/259 265/501/259
f 266/503/260 265/501/259 257/502/259
f 257/502/259 259/504/261 266/503/260
f 267/505/262 266/503/260 259/504/261
f 259/504/260 261/506/262 267/505/262
f 256/507/263 255/508/40 268/509/40
f 268/509/40 269/510/263 256/507/263
f 258/511/264 256/507/263 269/510/263
f 269/510/263 270/512/264 258/511/264
f 260/513/265 258/511/264 270/512/264
f 270/512/264 271/514/266 260/513/265
f 262/515/267 260/513/265 271/514/266
f 271/514/265 272/516/267 262/515/267
f 269/517/50 268/518/50 264/519/50
f 264/519/50 263/520/50 269/517/50
f 270/521/50 269/517/50 263/520/50
f 263/520/50 265/522/50 270/521/50
f 271/523/50 270/521/50 265/522/50
f 265/522/50 266/524/50 271/523/50
f 272/525/50 271/523/50 266/524/50
f 266/524/50 267/526/50 272/525/50
